vcd/BRWM_tb.vcd
$date
	Thu Apr  8 23:42:39 2021
$end
$version
	Icarus Verilog
$end
$timescale
	1ns
$end
$scope module BRWM_tb $end
$var wire 1 ! done $end
$var wire 8 " data_out [7:0] $end
$var reg 1 # clear $end
$var reg 1 $ clk $end
$var reg 8 % data_in [7:0] $end
$var reg 1 & on_off $end
$var reg 1 ' pause $end
$var reg 1 ( rw $end
$scope module DUT $end
$var wire 1 # clear $end
$var wire 1 $ clk $end
$var wire 8 ) data_in [7:0] $end
$var wire 1 ! done $end
$var wire 1 & on_off $end
$var wire 1 ' pause $end
$var wire 1 ( rw $end
$var wire 8 * data_out [7:0] $end
$var reg 3 + CS [2:0] $end
$var reg 3 , NS [2:0] $end
$var reg 1 - flag $end
$var reg 8 . out [7:0] $end
$var integer 32 / i [31:0] $end
$upscope $end
$upscope $end
$enddefinitions $end
#0
$dumpvars
bx /
bx .
x-
b0 ,
b0 +
bz *
b0 )
x(
0'
0&
b0 %
0$
x#
bz "
x!
$end
#1
1$
#2
0$
#3
1$
#4
0$
#5
1$
#6
0$
#7
1$
#8
0$
#9
1$
#10
0$
#11
1$
#12
0$
#13
1$
#14
0$
#15
1$
#16
0$
#17
1$
#18
0$
#19
1$
#20
0$
#21
1$
#22
0$
#23
1$
#24
0$
#25
1$
#26
0$
#27
1$
#28
0$
#29
1$
#30
0$
#31
1$
#32
0$
#33
1$
#34
0$
#35
1$
#36
0$
#37
1$
#38
0$
#39
1$
#40
0$
#41
1$
#42
0$
#43
1$
#44
0$
#45
1$
#46
0$
#47
1$
#48
0$
#49
1$
#50
0$
#51
1$
#52
0$
#53
1$
#54
0$
#55
1$
#56
0$
#57
1$
#58
0$
#59
1$
#60
0$
#61
1$
#62
0$
#63
1$
#64
0$
#65
1$
#66
0$
#67
1$
#68
0$
#69
1$
#70
0$
#71
1$
#72
0$
#73
1$
#74
0$
#75
1$
#76
0$
#77
1$
#78
0$
#79
1$
#80
0$
#81
1$
#82
0$
#83
1$
#84
0$
#85
1$
#86
0$
#87
1$
#88
0$
#89
1$
#90
0$
#91
1$
#92
0$
#93
1$
#94
0$
#95
1$
#96
0$
#97
1$
#98
0$
#99
1$
#100
0$
#101
1$
#102
0$
#103
1$
#104
0$
#105
1$
#106
0$
#107
1$
#108
0$
#109
1$
#110
0$
#111
1$
#112
0$
#113
1$
#114
0$
#115
1$
#116
0$
#117
1$
#118
0$
#119
1$
#120
0$
#121
1$
#122
0$
#123
1$
#124
0$
#125
1$
#126
0$
#127
1$
#128
0$
#129
1$
#130
0$
#131
1$
#132
0$
#133
1$
#134
0$
#135
1$
#136
0$
#137
1$
#138
0$
#139
1$
#140
0$
#141
1$
#142
0$
#143
1$
#144
0$
#145
1$
#146
0$
#147
1$
#148
0$
#149
1$
#150
b10 +
b10 ,
0!
0-
b0 /
0$
1(
1&
0#
#151
1$
#152
b1 /
0$
#153
1$
#154
b10 /
0$
#155
1$
#156
b11 /
0$
#157
1$
#158
b100 /
0$
#159
1$
#160
b101 /
0$
#161
1$
#162
b110 /
0$
#163
1$
#164
b111 /
0$
#165
1$
#166
b1000 /
0$
#167
1$
#168
b1001 /
0$
#169
1$
#170
b1010 /
0$
#171
1$
#172
b1011 /
0$
#173
1$
#174
b1100 /
0$
#175
1$
#176
b1101 /
0$
#177
1$
#178
b1110 /
0$
#179
1$
#180
b1111 /
0$
#181
1$
#182
b10000 /
0$
#183
1$
#184
b10001 /
0$
#185
1$
#186
b10010 /
0$
#187
1$
#188
b10011 /
0$
#189
1$
#190
b10100 /
0$
#191
1$
#192
b10101 /
0$
#193
1$
#194
b10110 /
0$
#195
1$
#196
b10111 /
0$
#197
1$
#198
b11000 /
0$
#199
1$
#200
b11001 /
0$
#201
1$
#202
b11010 /
0$
#203
1$
#204
b11011 /
0$
#205
1$
#206
b11100 /
0$
#207
1$
#208
b11101 /
0$
#209
1$
#210
b11110 /
0$
#211
1$
#212
b11111 /
0$
#213
1$
#214
b100000 /
0$
#215
1$
#216
b100001 /
0$
#217
1$
#218
b100010 /
0$
#219
1$
#220
b100011 /
0$
#221
1$
#222
b100100 /
0$
#223
1$
#224
b100101 /
0$
#225
1$
#226
b100110 /
0$
#227
1$
#228
b100111 /
0$
#229
1$
#230
b101000 /
0$
#231
1$
#232
b101001 /
0$
#233
1$
#234
b101010 /
0$
#235
1$
#236
b101011 /
0$
#237
1$
#238
b101100 /
0$
#239
1$
#240
b101101 /
0$
#241
1$
#242
b101110 /
0$
#243
1$
#244
b101111 /
0$
#245
1$
#246
b110000 /
0$
#247
1$
#248
b110001 /
0$
#249
1$
#250
b110010 /
0$
#251
1$
#252
b110011 /
0$
#253
1$
#254
b110100 /
0$
#255
1$
#256
b110101 /
0$
#257
1$
#258
b110110 /
0$
#259
1$
#260
b110111 /
0$
#261
1$
#262
b111000 /
0$
#263
1$
#264
b111001 /
0$
#265
1$
#266
b111010 /
0$
#267
1$
#268
b111011 /
0$
#269
1$
#270
b111100 /
0$
#271
1$
#272
b111101 /
0$
#273
1$
#274
b111110 /
0$
#275
1$
#276
b111111 /
0$
#277
1$
#278
b1000000 /
0$
#279
1$
#280
b1000001 /
0$
#281
1$
#282
b1000010 /
0$
#283
1$
#284
b1000011 /
0$
#285
1$
#286
b1000100 /
0$
#287
1$
#288
b1000101 /
0$
#289
1$
#290
b1000110 /
0$
#291
1$
#292
b1000111 /
0$
#293
1$
#294
b1001000 /
0$
#295
1$
#296
b1001001 /
0$
#297
1$
#298
b1001010 /
0$
#299
1$
#300
1!
1-
b0 ,
b1001011 /
0$
0(
#301
1$
#302
b1 ,
0!
0-
b0 /
b0 +
0$
#303
1$
#304
bx "
bx *
b1 +
0$
#305
1$
#306
b0 "
b0 *
b1 /
b0 .
0$
#307
1$
#308
b1 "
b1 *
b10 /
b1 .
0$
#309
1$
#310
b10 "
b10 *
b11 /
b10 .
0$
#311
1$
#312
b11 "
b11 *
b100 /
b11 .
0$
#313
1$
#314
b100 "
b100 *
b101 /
b100 .
0$
#315
1$
#316
b101 "
b101 *
b110 /
b101 .
0$
#317
1$
#318
b110 "
b110 *
b111 /
b110 .
0$
#319
1$
#320
b111 "
b111 *
b1000 /
b111 .
0$
#321
1$
#322
b1000 "
b1000 *
b1001 /
b1000 .
0$
#323
1$
#324
b1001 "
b1001 *
b1010 /
b1001 .
0$
#325
1$
#326
b1010 "
b1010 *
b1011 /
b1010 .
0$
#327
1$
#328
b1011 "
b1011 *
b1100 /
b1011 .
0$
#329
1$
#330
b1100 "
b1100 *
b1101 /
b1100 .
0$
#331
1$
#332
b1101 "
b1101 *
b1110 /
b1101 .
0$
#333
1$
#334
b1110 "
b1110 *
b1111 /
b1110 .
0$
#335
1$
#336
b1111 "
b1111 *
b10000 /
b1111 .
0$
#337
1$
#338
b10000 "
b10000 *
b10001 /
b10000 .
0$
#339
1$
#340
b10001 "
b10001 *
b10010 /
b10001 .
0$
#341
1$
#342
b10010 "
b10010 *
b10011 /
b10010 .
0$
#343
1$
#344
b10011 "
b10011 *
b10100 /
b10011 .
0$
#345
1$
#346
b10100 "
b10100 *
b10101 /
b10100 .
0$
#347
1$
#348
b10101 "
b10101 *
b10110 /
b10101 .
0$
#349
1$
#350
b10110 "
b10110 *
b10111 /
b10110 .
0$
#351
1$
#352
b10111 "
b10111 *
b11000 /
b10111 .
0$
#353
1$
#354
b11000 "
b11000 *
b11001 /
b11000 .
0$
#355
1$
#356
b11001 "
b11001 *
b11010 /
b11001 .
0$
#357
1$
#358
b11010 "
b11010 *
b11011 /
b11010 .
0$
#359
1$
#360
b11011 "
b11011 *
b11100 /
b11011 .
0$
#361
1$
#362
b11100 "
b11100 *
b11101 /
b11100 .
0$
#363
1$
#364
b11101 "
b11101 *
b11110 /
b11101 .
0$
#365
1$
#366
b11110 "
b11110 *
b11111 /
b11110 .
0$
#367
1$
#368
b11111 "
b11111 *
b100000 /
b11111 .
0$
#369
1$
#370
b100000 "
b100000 *
b100001 /
b100000 .
0$
#371
1$
#372
b100001 "
b100001 *
b100010 /
b100001 .
0$
#373
1$
#374
b100010 "
b100010 *
b100011 /
b100010 .
0$
#375
1$
#376
b100011 "
b100011 *
b100100 /
b100011 .
0$
#377
1$
#378
b100100 "
b100100 *
b100101 /
b100100 .
0$
#379
1$
#380
b100101 "
b100101 *
b100110 /
b100101 .
0$
#381
1$
#382
b100110 "
b100110 *
b100111 /
b100110 .
0$
#383
1$
#384
b100111 "
b100111 *
b101000 /
b100111 .
0$
#385
1$
#386
b101000 "
b101000 *
b101001 /
b101000 .
0$
#387
1$
#388
b101001 "
b101001 *
b101010 /
b101001 .
0$
#389
1$
#390
b101010 "
b101010 *
b101011 /
b101010 .
0$
#391
1$
#392
b101011 "
b101011 *
b101100 /
b101011 .
0$
#393
1$
#394
b101100 "
b101100 *
b101101 /
b101100 .
0$
#395
1$
#396
b101101 "
b101101 *
b101110 /
b101101 .
0$
#397
1$
#398
b101110 "
b101110 *
b101111 /
b101110 .
0$
#399
1$
#400
b101111 "
b101111 *
b110000 /
b101111 .
0$
#401
1$
#402
b110000 "
b110000 *
b110001 /
b110000 .
0$
#403
1$
#404
b110001 "
b110001 *
b110010 /
b110001 .
0$
#405
1$
#406
b110010 "
b110010 *
b110011 /
b110010 .
0$
#407
1$
#408
b110011 "
b110011 *
b110100 /
b110011 .
0$
#409
1$
#410
b110100 "
b110100 *
b110101 /
b110100 .
0$
#411
1$
#412
b110101 "
b110101 *
b110110 /
b110101 .
0$
#413
1$
#414
b110110 "
b110110 *
b110111 /
b110110 .
0$
#415
1$
#416
b110111 "
b110111 *
b111000 /
b110111 .
0$
#417
1$
#418
b111000 "
b111000 *
b111001 /
b111000 .
0$
#419
1$
#420
b111001 "
b111001 *
b111010 /
b111001 .
0$
#421
1$
#422
b111010 "
b111010 *
b111011 /
b111010 .
0$
#423
1$
#424
b111011 "
b111011 *
b111100 /
b111011 .
0$
#425
1$
#426
b111100 "
b111100 *
b111101 /
b111100 .
0$
#427
1$
#428
b111101 "
b111101 *
b111110 /
b111101 .
0$
#429
1$
#430
b111110 "
b111110 *
b111111 /
b111110 .
0$
#431
1$
#432
b111111 "
b111111 *
b1000000 /
b111111 .
0$
#433
1$
#434
b1000000 "
b1000000 *
b1000001 /
b1000000 .
0$
#435
1$
#436
b1000001 "
b1000001 *
b1000010 /
b1000001 .
0$
#437
1$
#438
b1000010 "
b1000010 *
b1000011 /
b1000010 .
0$
#439
1$
#440
b1000011 "
b1000011 *
b1000100 /
b1000011 .
0$
#441
1$
#442
b1000100 "
b1000100 *
b1000101 /
b1000100 .
0$
#443
1$
#444
b1000101 "
b1000101 *
b1000110 /
b1000101 .
0$
#445
1$
#446
b1000110 "
b1000110 *
b1000111 /
b1000110 .
0$
#447
1$
#448
b1000111 "
b1000111 *
b1001000 /
b1000111 .
0$
#449
1$
#450
b1001000 "
b1001000 *
b1001001 /
b1001000 .
0$
1#
#451
1$
#452
b1001001 "
b1001001 *
b1001010 /
b1001001 .
0$
#453
1$
#454
1!
1-
b0 ,
b1001010 "
b1001010 *
b1001011 /
b1001010 .
0$
#455
1$
#456
b100 ,
0!
0-
bz "
bz *
b0 +
b0 /
bx .
0$
#457
1$
#458
b100 +
0$
#459
1$
#460
b1 /
0$
#461
1$
#462
b10 /
0$
#463
1$
#464
b11 /
0$
#465
1$
#466
b100 /
0$
#467
1$
#468
b101 /
0$
#469
1$
#470
b110 /
0$
#471
1$
#472
b111 /
0$
#473
1$
#474
b1000 /
0$
#475
1$
#476
b1001 /
0$
#477
1$
#478
b1010 /
0$
#479
1$
#480
b1011 /
0$
#481
1$
#482
b1100 /
0$
#483
1$
#484
b1101 /
0$
#485
1$
#486
b1110 /
0$
#487
1$
#488
b1111 /
0$
#489
1$
#490
b10000 /
0$
#491
1$
#492
b10001 /
0$
#493
1$
#494
b10010 /
0$
#495
1$
#496
b10011 /
0$
#497
1$
#498
b10100 /
0$
#499
1$
#500
b10101 /
0$
#501
1$
#502
b10110 /
0$
#503
1$
#504
b10111 /
0$
#505
1$
#506
b11000 /
0$
#507
1$
#508
b11001 /
0$
#509
1$
#510
b11010 /
0$
#511
1$
#512
b11011 /
0$
#513
1$
#514
b11100 /
0$
#515
1$
#516
b11101 /
0$
#517
1$
#518
b11110 /
0$
#519
1$
#520
b11111 /
0$
#521
1$
#522
b100000 /
0$
#523
1$
#524
b100001 /
0$
#525
1$
#526
b100010 /
0$
#527
1$
#528
b100011 /
0$
#529
1$
#530
b100100 /
0$
#531
1$
#532
b100101 /
0$
#533
1$
#534
b100110 /
0$
#535
1$
#536
b100111 /
0$
#537
1$
#538
b101000 /
0$
#539
1$
#540
b101001 /
0$
#541
1$
#542
b101010 /
0$
#543
1$
#544
b101011 /
0$
#545
1$
#546
b101100 /
0$
#547
1$
#548
b101101 /
0$
#549
1$
#550
b101110 /
0$
#551
1$
#552
b101111 /
0$
#553
1$
#554
b110000 /
0$
#555
1$
#556
b110001 /
0$
#557
1$
#558
b110010 /
0$
#559
1$
#560
b110011 /
0$
#561
1$
#562
b110100 /
0$
#563
1$
#564
b110101 /
0$
#565
1$
#566
b110110 /
0$
#567
1$
#568
b110111 /
0$
#569
1$
#570
b111000 /
0$
#571
1$
#572
b111001 /
0$
#573
1$
#574
b111010 /
0$
#575
1$
#576
b111011 /
0$
#577
1$
#578
b111100 /
0$
#579
1$
#580
b111101 /
0$
#581
1$
#582
b111110 /
0$
#583
1$
#584
b111111 /
0$
#585
1$
#586
b1000000 /
0$
#587
1$
#588
b1000001 /
0$
#589
1$
#590
b1000010 /
0$
#591
1$
#592
b1000011 /
0$
#593
1$
#594
b1000100 /
0$
#595
1$
#596
b1000101 /
0$
#597
1$
#598
b1000110 /
0$
#599
1$
#600
b0 ,
b0 +
b0 /
0$
0#
0&
