vcd/filter5x5.vcd
$date
	Sun Apr 25 13:24:18 2021
$end
$version
	Icarus Verilog
$end
$timescale
	1s
$end
$scope module filter5x5_tb $end
$var wire 1 ! fill_now $end
$var wire 16 " Dout [15:0] $end
$var reg 8 # Din [7:0] $end
$var reg 1 $ clk $end
$var reg 1 % data_valid $end
$var reg 1 & rst $end
$scope module UUT $end
$var wire 8 ' Din [7:0] $end
$var wire 1 $ clk $end
$var wire 1 % data_valid $end
$var wire 1 & rst $end
$var wire 1 ! fill_now $end
$var wire 16 ( Dout [15:0] $end
$var reg 2 ) NS [1:0] $end
$var reg 2 * PS [1:0] $end
$var reg 8 + r0 [7:0] $end
$var reg 8 , r1 [7:0] $end
$var reg 8 - r2 [7:0] $end
$var reg 8 . r3 [7:0] $end
$var reg 8 / r4 [7:0] $end
$var reg 8 0 r5 [7:0] $end
$var reg 8 1 r6 [7:0] $end
$var reg 8 2 r7 [7:0] $end
$var reg 8 3 r8 [7:0] $end
$var reg 16 4 result [15:0] $end
$var integer 32 5 count [31:0] $end
$var integer 32 6 i [31:0] $end
$var integer 32 7 j [31:0] $end
$var integer 32 8 k [31:0] $end
$upscope $end
$upscope $end
$enddefinitions $end
#0
$dumpvars
b0 8
b0 7
b0 6
b0 5
b0 4
bx 3
bx 2
bx 1
bx 0
bx /
bx .
bx -
bx ,
bx +
b0 *
b0 )
bz (
b0 '
1&
0%
1$
b0 #
bz "
1!
$end
#1
0$
#2
b1 6
b1 *
b1 )
1$
b100011 #
b100011 '
1%
0&
#3
0$
#4
b10 6
1$
b1010101 #
b1010101 '
#5
0$
#6
b11 6
1$
b10100 #
b10100 '
#7
0$
#8
b100 6
1$
b11110101 #
b11110101 '
#9
0$
#10
b101 6
1$
b1001100 #
b1001100 '
#11
0$
#12
b110 6
1$
b1010110 #
b1010110 '
#13
0$
#14
b111 6
1$
b10001 #
b10001 '
#15
0$
#16
b1000 6
1$
b10101010 #
b10101010 '
#17
0$
#18
b1001 6
1$
b10101110 #
b10101110 '
#19
0$
#20
b1010 6
1$
b11001101 #
b11001101 '
#21
0$
#22
b1011 6
1$
b11000110 #
b11000110 '
#23
0$
#24
b1100 6
1$
b1000100 #
b1000100 '
#25
0$
#26
b1101 6
1$
b11100111 #
b11100111 '
#27
0$
#28
b1110 6
1$
b11011001 #
b11011001 '
#29
0$
#30
b1111 6
1$
b11110000 #
b11110000 '
#31
0$
#32
b10000 6
1$
#33
0$
#34
b10001 6
1$
#35
0$
#36
b10010 6
1$
#37
0$
#38
b10011 6
1$
#39
0$
#40
b10100 6
1$
#41
0$
#42
b10101 6
1$
#43
0$
#44
b10110 6
1$
#45
0$
#46
b10111 6
1$
#47
0$
#48
b10 )
b11000 6
1$
#49
0$
#50
0!
b11 )
b11100111 3
b1000100 2
b11000110 1
b10101010 0
b10001 /
b1010110 .
b10100 -
b1010101 ,
b100011 +
b0 6
b10 *
1$
#51
0$
#52
b10 )
b1 8
b1 7
b1 5
b1111111010101100 4
b1111111010101100 "
b1111111010101100 (
b1 6
b11 *
1$
#53
0$
#54
b11 )
b11011001 3
b11100111 2
b1000100 1
b10101110 0
b10101010 /
b10001 .
b11110101 -
b10100 ,
b11110000 +
bz "
bz (
b10 6
b10 *
1$
#55
0$
#56
b10 )
b10 8
b10 7
b10 5
b1111111100100010 4
b1111111100100010 "
b1111111100100010 (
b11 6
b11 *
1$
#57
0$
#58
b11 )
b11110000 3
b11011001 2
b11100111 1
b11001101 0
b10101110 /
b10101010 .
b1001100 -
b11110000 ,
bz "
bz (
b100 6
b10 *
1$
#59
0$
#60
b10 )
b11 8
b11 7
b11 5
b1111111110010011 4
b1111111110010011 "
b1111111110010011 (
b101 6
b11 *
1$
#61
0$
#62
b11 )
b11110000 2
b11011001 1
b11000110 0
b11001101 /
b10101110 .
b11110000 -
bz "
bz (
b110 6
b10 *
1$
#63
0$
#64
b10 )
b0 8
b110 7
b100 5
b10111 4
b10111 "
b10111 (
b111 6
b11 *
1$
#65
0$
#66
b11 )
b11110000 1
b11011001 0
b11100111 /
b1000100 .
b10101110 -
bz "
bz (
b1000 6
b10 *
1$
#67
0$
#68
b10 )
b1 8
b111 7
b101 5
b1111111110111110 4
b1111111110111110 "
b1111111110111110 (
b1001 6
b11 *
1$
#69
0$
#70
b11 )
b11110000 0
b11011001 /
b11100111 .
b11110000 -
bz "
bz (
b1010 6
b10 *
1$
#71
0$
#72
b10 )
b10 8
b1000 7
b110 5
b0 4
b0 "
b0 (
b1011 6
b11 *
1$
#73
0$
#74
b11 )
b11110000 /
b11011001 .
bz "
bz (
b1100 6
b10 *
1$
#75
0$
#76
b10 )
b11 8
b1001 7
b111 5
b0 "
b0 (
b1101 6
b11 *
1$
#77
0$
#78
b11 )
b11110000 .
bz "
bz (
b1110 6
b10 *
1$
#79
0$
#80
b10 )
b0 8
b1100 7
b1000 5
b0 "
b0 (
b1111 6
b11 *
1$
#81
0$
#82
b11 )
bz "
bz (
b10000 6
b10 *
1$
#83
0$
#84
b0 )
b1001 5
b0 "
b0 (
b10001 6
b11 *
1$
#85
0$
#86
1!
b1 )
b0 7
b0 5
bz "
bz (
b10010 6
b0 *
1$
#87
0$
#88
b10011 6
b1 *
1$
#89
0$
#90
b10100 6
1$
#91
0$
#92
b10101 6
1$
#93
0$
#94
b10110 6
1$
#95
0$
#96
b10111 6
1$
#97
0$
#98
b10 )
b11000 6
1$
#99
0$
#100
0!
b11 )
b0 6
b10 *
1$
#101
0$
#102
b10 )
b1 8
b1 7
b1 5
b0 "
b0 (
b1 6
b11 *
1$
#103
0$
#104
b11 )
bz "
bz (
b10 6
b10 *
1$
#105
0$
#106
b10 )
b10 8
b10 7
b10 5
b0 "
b0 (
b11 6
b11 *
1$
#107
0$
#108
b11 )
bz "
bz (
b100 6
b10 *
1$
#109
0$
#110
b10 )
b11 8
b11 7
b11 5
b0 "
b0 (
b101 6
b11 *
1$
#111
0$
#112
b11 )
bz "
bz (
b110 6
b10 *
1$
#113
0$
#114
b10 )
b0 8
b110 7
b100 5
b0 "
b0 (
b111 6
b11 *
1$
#115
0$
#116
b11 )
bz "
bz (
b1000 6
b10 *
1$
#117
0$
#118
b10 )
b1 8
b111 7
b101 5
b0 "
b0 (
b1001 6
b11 *
1$
#119
0$
#120
b11 )
bz "
bz (
b1010 6
b10 *
1$
#121
0$
#122
b10 )
b10 8
b1000 7
b110 5
b0 "
b0 (
b1011 6
b11 *
1$
#123
0$
#124
b11 )
bz "
bz (
b1100 6
b10 *
1$
#125
0$
#126
b10 )
b11 8
b1001 7
b111 5
b0 "
b0 (
b1101 6
b11 *
1$
#127
0$
#128
b11 )
bz "
bz (
b1110 6
b10 *
1$
#129
0$
#130
b10 )
b0 8
b1100 7
b1000 5
b0 "
b0 (
b1111 6
b11 *
1$
#131
0$
#132
b11 )
bz "
bz (
b10000 6
b10 *
1$
#133
0$
#134
b0 )
b1001 5
b0 "
b0 (
b10001 6
b11 *
1$
#135
0$
#136
1!
b1 )
b0 7
b0 5
bz "
bz (
b10010 6
b0 *
1$
#137
0$
#138
b10011 6
b1 *
1$
#139
0$
#140
b10100 6
1$
#141
0$
#142
b10101 6
1$
#143
0$
#144
b10110 6
1$
#145
0$
#146
b10111 6
1$
#147
0$
#148
b10 )
b11000 6
1$
#149
0$
#150
0!
b11 )
b0 6
b10 *
1$
#151
0$
#152
b10 )
b1 8
b1 7
b1 5
b0 "
b0 (
b1 6
b11 *
1$
#153
0$
#154
b11 )
bz "
bz (
b10 6
b10 *
1$
#155
0$
#156
b10 )
b10 8
b10 7
b10 5
b0 "
b0 (
b11 6
b11 *
1$
#157
0$
#158
b11 )
bz "
bz (
b100 6
b10 *
1$
#159
0$
#160
b10 )
b11 8
b11 7
b11 5
b0 "
b0 (
b101 6
b11 *
1$
#161
0$
#162
b11 )
bz "
bz (
b110 6
b10 *
1$
#163
0$
#164
b10 )
b0 8
b110 7
b100 5
b0 "
b0 (
b111 6
b11 *
1$
#165
0$
#166
b11 )
bz "
bz (
b1000 6
b10 *
1$
#167
0$
#168
b10 )
b1 8
b111 7
b101 5
b0 "
b0 (
b1001 6
b11 *
1$
#169
0$
#170
b11 )
bz "
bz (
b1010 6
b10 *
1$
#171
0$
#172
b10 )
b10 8
b1000 7
b110 5
b0 "
b0 (
b1011 6
b11 *
1$
#173
0$
#174
b11 )
bz "
bz (
b1100 6
b10 *
1$
#175
0$
#176
b10 )
b11 8
b1001 7
b111 5
b0 "
b0 (
b1101 6
b11 *
1$
#177
0$
#178
b11 )
bz "
bz (
b1110 6
b10 *
1$
#179
0$
#180
b10 )
b0 8
b1100 7
b1000 5
b0 "
b0 (
b1111 6
b11 *
1$
#181
0$
#182
b11 )
bz "
bz (
b10000 6
b10 *
1$
#183
0$
#184
b0 )
b1001 5
b0 "
b0 (
b10001 6
b11 *
1$
#185
0$
#186
1!
b1 )
b0 7
b0 5
bz "
bz (
b10010 6
b0 *
1$
#187
0$
#188
b10011 6
b1 *
1$
#189
0$
#190
b10100 6
1$
#191
0$
#192
b10101 6
1$
#193
0$
#194
b10110 6
1$
#195
0$
#196
b10111 6
1$
#197
0$
#198
b10 )
b11000 6
1$
#199
0$
#200
0!
b11 )
b0 6
b10 *
1$
#201
0$
#202
b10 )
b1 8
b1 7
b1 5
b0 "
b0 (
b1 6
b11 *
1$
#203
0$
#204
b11 )
bz "
bz (
b10 6
b10 *
1$
#205
0$
#206
b10 )
b10 8
b10 7
b10 5
b0 "
b0 (
b11 6
b11 *
1$
#207
0$
#208
b11 )
bz "
bz (
b100 6
b10 *
1$
#209
0$
#210
b10 )
b11 8
b11 7
b11 5
b0 "
b0 (
b101 6
b11 *
1$
#211
0$
#212
b11 )
bz "
bz (
b110 6
b10 *
1$
#213
0$
#214
b10 )
b0 8
b110 7
b100 5
b0 "
b0 (
b111 6
b11 *
1$
#215
0$
#216
b11 )
bz "
bz (
b1000 6
b10 *
1$
#217
0$
#218
b10 )
b1 8
b111 7
b101 5
b0 "
b0 (
b1001 6
b11 *
1$
#219
0$
#220
b11 )
bz "
bz (
b1010 6
b10 *
1$
#221
0$
#222
b10 )
b10 8
b1000 7
b110 5
b0 "
b0 (
b1011 6
b11 *
1$
#223
0$
#224
b11 )
bz "
bz (
b1100 6
b10 *
1$
#225
0$
#226
b10 )
b11 8
b1001 7
b111 5
b0 "
b0 (
b1101 6
b11 *
1$
#227
0$
#228
b11 )
bz "
bz (
b1110 6
b10 *
1$
#229
0$
#230
b10 )
b0 8
b1100 7
b1000 5
b0 "
b0 (
b1111 6
b11 *
1$
#231
0$
#232
b11 )
bz "
bz (
b10000 6
b10 *
1$
#233
0$
#234
b0 )
b1001 5
b0 "
b0 (
b10001 6
b11 *
1$
#235
0$
#236
1!
b1 )
b0 7
b0 5
bz "
bz (
b10010 6
b0 *
1$
#237
0$
#238
b10011 6
b1 *
1$
#239
0$
#240
b10100 6
1$
#241
0$
#242
b10101 6
1$
#243
0$
#244
b10110 6
1$
#245
0$
#246
b10111 6
1$
#247
0$
#248
b10 )
b11000 6
1$
#249
0$
#250
0!
b11 )
b0 6
b10 *
1$
#251
0$
#252
b10 )
b1 8
b1 7
b1 5
b0 "
b0 (
b1 6
b11 *
1$
#253
0$
#254
b11 )
bz "
bz (
b10 6
b10 *
1$
#255
0$
#256
b10 )
b10 8
b10 7
b10 5
b0 "
b0 (
b11 6
b11 *
1$
#257
0$
#258
b11 )
bz "
bz (
b100 6
b10 *
1$
#259
0$
#260
b10 )
b11 8
b11 7
b11 5
b0 "
b0 (
b101 6
b11 *
1$
#261
0$
#262
b11 )
bz "
bz (
b110 6
b10 *
1$
#263
0$
#264
b10 )
b0 8
b110 7
b100 5
b0 "
b0 (
b111 6
b11 *
1$
#265
0$
#266
b11 )
bz "
bz (
b1000 6
b10 *
1$
#267
0$
#268
b10 )
b1 8
b111 7
b101 5
b0 "
b0 (
b1001 6
b11 *
1$
#269
0$
#270
b11 )
bz "
bz (
b1010 6
b10 *
1$
#271
0$
#272
b10 )
b10 8
b1000 7
b110 5
b0 "
b0 (
b1011 6
b11 *
1$
#273
0$
#274
b11 )
bz "
bz (
b1100 6
b10 *
1$
#275
0$
#276
b10 )
b11 8
b1001 7
b111 5
b0 "
b0 (
b1101 6
b11 *
1$
#277
0$
#278
b11 )
bz "
bz (
b1110 6
b10 *
1$
#279
0$
#280
b10 )
b0 8
b1100 7
b1000 5
b0 "
b0 (
b1111 6
b11 *
1$
#281
0$
#282
b11 )
bz "
bz (
b10000 6
b10 *
1$
#283
0$
#284
b0 )
b1001 5
b0 "
b0 (
b10001 6
b11 *
1$
#285
0$
#286
1!
b1 )
b0 7
b0 5
bz "
bz (
b10010 6
b0 *
1$
#287
0$
#288
b10011 6
b1 *
1$
#289
0$
#290
b10100 6
1$
#291
0$
#292
b10101 6
1$
#293
0$
#294
b10110 6
1$
#295
0$
#296
b10111 6
1$
#297
0$
#298
b10 )
b11000 6
1$
#299
0$
#300
0!
b11 )
b0 6
b10 *
1$
#301
0$
#302
b10 )
b1 8
b1 7
b1 5
b0 "
b0 (
b1 6
b11 *
1$
#303
0$
#304
b11 )
bz "
bz (
b10 6
b10 *
1$
#305
0$
#306
b10 )
b10 8
b10 7
b10 5
b0 "
b0 (
b11 6
b11 *
1$
#307
0$
#308
b11 )
bz "
bz (
b100 6
b10 *
1$
#309
0$
#310
b10 )
b11 8
b11 7
b11 5
b0 "
b0 (
b101 6
b11 *
1$
#311
0$
#312
b11 )
bz "
bz (
b110 6
b10 *
1$
#313
0$
#314
b10 )
b0 8
b110 7
b100 5
b0 "
b0 (
b111 6
b11 *
1$
#315
0$
#316
b11 )
bz "
bz (
b1000 6
b10 *
1$
#317
0$
#318
b10 )
b1 8
b111 7
b101 5
b0 "
b0 (
b1001 6
b11 *
1$
#319
0$
#320
b11 )
bz "
bz (
b1010 6
b10 *
1$
#321
0$
#322
b10 )
b10 8
b1000 7
b110 5
b0 "
b0 (
b1011 6
b11 *
1$
#323
0$
#324
b11 )
bz "
bz (
b1100 6
b10 *
1$
#325
0$
#326
b10 )
b11 8
b1001 7
b111 5
b0 "
b0 (
b1101 6
b11 *
1$
#327
0$
#328
b11 )
bz "
bz (
b1110 6
b10 *
1$
#329
0$
#330
b10 )
b0 8
b1100 7
b1000 5
b0 "
b0 (
b1111 6
b11 *
1$
#331
0$
#332
b11 )
bz "
bz (
b10000 6
b10 *
1$
#333
0$
#334
b0 )
b1001 5
b0 "
b0 (
b10001 6
b11 *
1$
#335
0$
#336
1!
b1 )
b0 7
b0 5
bz "
bz (
b10010 6
b0 *
1$
#337
0$
#338
b10011 6
b1 *
1$
#339
0$
#340
b10100 6
1$
#341
0$
#342
b10101 6
1$
#343
0$
#344
b10110 6
1$
#345
0$
#346
b10111 6
1$
#347
0$
#348
b10 )
b11000 6
1$
#349
0$
#350
0!
b11 )
b0 6
b10 *
1$
#351
0$
#352
b10 )
b1 8
b1 7
b1 5
b0 "
b0 (
b1 6
b11 *
1$
#353
0$
#354
b11 )
bz "
bz (
b10 6
b10 *
1$
#355
0$
#356
b10 )
b10 8
b10 7
b10 5
b0 "
b0 (
b11 6
b11 *
1$
#357
0$
#358
b11 )
bz "
bz (
b100 6
b10 *
1$
#359
0$
#360
b10 )
b11 8
b11 7
b11 5
b0 "
b0 (
b101 6
b11 *
1$
#361
0$
#362
b11 )
bz "
bz (
b110 6
b10 *
1$
#363
0$
#364
b10 )
b0 8
b110 7
b100 5
b0 "
b0 (
b111 6
b11 *
1$
#365
0$
#366
b11 )
bz "
bz (
b1000 6
b10 *
1$
#367
0$
#368
b10 )
b1 8
b111 7
b101 5
b0 "
b0 (
b1001 6
b11 *
1$
#369
0$
#370
b11 )
bz "
bz (
b1010 6
b10 *
1$
#371
0$
#372
b10 )
b10 8
b1000 7
b110 5
b0 "
b0 (
b1011 6
b11 *
1$
#373
0$
#374
b11 )
bz "
bz (
b1100 6
b10 *
1$
#375
0$
#376
b10 )
b11 8
b1001 7
b111 5
b0 "
b0 (
b1101 6
b11 *
1$
#377
0$
#378
b11 )
bz "
bz (
b1110 6
b10 *
1$
#379
0$
#380
b10 )
b0 8
b1100 7
b1000 5
b0 "
b0 (
b1111 6
b11 *
1$
#381
0$
#382
b11 )
bz "
bz (
b10000 6
b10 *
1$
#383
0$
#384
b0 )
b1001 5
b0 "
b0 (
b10001 6
b11 *
1$
#385
0$
#386
1!
b1 )
b0 7
b0 5
bz "
bz (
b10010 6
b0 *
1$
#387
0$
#388
b10011 6
b1 *
1$
#389
0$
#390
b10100 6
1$
#391
0$
#392
b10101 6
1$
#393
0$
#394
b10110 6
1$
#395
0$
#396
b10111 6
1$
#397
0$
#398
b10 )
b11000 6
1$
#399
0$
#400
0!
b11 )
b0 6
b10 *
1$
#401
0$
#402
b10 )
b1 8
b1 7
b1 5
b0 "
b0 (
b1 6
b11 *
1$
#403
0$
#404
b11 )
bz "
bz (
b10 6
b10 *
1$
#405
0$
#406
b10 )
b10 8
b10 7
b10 5
b0 "
b0 (
b11 6
b11 *
1$
#407
0$
#408
b11 )
bz "
bz (
b100 6
b10 *
1$
#409
0$
#410
b10 )
b11 8
b11 7
b11 5
b0 "
b0 (
b101 6
b11 *
1$
#411
0$
#412
b11 )
bz "
bz (
b110 6
b10 *
1$
#413
0$
#414
b10 )
b0 8
b110 7
b100 5
b0 "
b0 (
b111 6
b11 *
1$
#415
0$
#416
b11 )
bz "
bz (
b1000 6
b10 *
1$
#417
0$
#418
b10 )
b1 8
b111 7
b101 5
b0 "
b0 (
b1001 6
b11 *
1$
#419
0$
#420
b11 )
bz "
bz (
b1010 6
b10 *
1$
#421
0$
#422
b10 )
b10 8
b1000 7
b110 5
b0 "
b0 (
b1011 6
b11 *
1$
#423
0$
#424
b11 )
bz "
bz (
b1100 6
b10 *
1$
#425
0$
#426
b10 )
b11 8
b1001 7
b111 5
b0 "
b0 (
b1101 6
b11 *
1$
#427
0$
#428
b11 )
bz "
bz (
b1110 6
b10 *
1$
#429
0$
#430
b10 )
b0 8
b1100 7
b1000 5
b0 "
b0 (
b1111 6
b11 *
1$
#431
0$
#432
b11 )
bz "
bz (
b10000 6
b10 *
1$
#433
0$
#434
b0 )
b1001 5
b0 "
b0 (
b10001 6
b11 *
1$
#435
0$
#436
1!
b1 )
b0 7
b0 5
bz "
bz (
b10010 6
b0 *
1$
#437
0$
#438
b10011 6
b1 *
1$
#439
0$
#440
b10100 6
1$
#441
0$
#442
b10101 6
1$
#443
0$
#444
b10110 6
1$
#445
0$
#446
b10111 6
1$
#447
0$
#448
b10 )
b11000 6
1$
#449
0$
#450
0!
b11 )
b0 6
b10 *
1$
#451
0$
#452
b10 )
b1 8
b1 7
b1 5
b0 "
b0 (
b1 6
b11 *
1$
#453
0$
#454
b11 )
bz "
bz (
b10 6
b10 *
1$
#455
0$
#456
b10 )
b10 8
b10 7
b10 5
b0 "
b0 (
b11 6
b11 *
1$
#457
0$
#458
b11 )
bz "
bz (
b100 6
b10 *
1$
#459
0$
#460
b10 )
b11 8
b11 7
b11 5
b0 "
b0 (
b101 6
b11 *
1$
#461
0$
#462
b11 )
bz "
bz (
b110 6
b10 *
1$
#463
0$
#464
b10 )
b0 8
b110 7
b100 5
b0 "
b0 (
b111 6
b11 *
1$
#465
0$
#466
b11 )
bz "
bz (
b1000 6
b10 *
1$
#467
0$
#468
b10 )
b1 8
b111 7
b101 5
b0 "
b0 (
b1001 6
b11 *
1$
#469
0$
#470
b11 )
bz "
bz (
b1010 6
b10 *
1$
#471
0$
#472
b10 )
b10 8
b1000 7
b110 5
b0 "
b0 (
b1011 6
b11 *
1$
#473
0$
#474
b11 )
bz "
bz (
b1100 6
b10 *
1$
#475
0$
#476
b10 )
b11 8
b1001 7
b111 5
b0 "
b0 (
b1101 6
b11 *
1$
#477
0$
#478
b11 )
bz "
bz (
b1110 6
b10 *
1$
#479
0$
#480
b10 )
b0 8
b1100 7
b1000 5
b0 "
b0 (
b1111 6
b11 *
1$
#481
0$
#482
b11 )
bz "
bz (
b10000 6
b10 *
1$
#483
0$
#484
b0 )
b1001 5
b0 "
b0 (
b10001 6
b11 *
1$
#485
0$
#486
1!
b1 )
b0 7
b0 5
bz "
bz (
b10010 6
b0 *
1$
#487
0$
#488
b10011 6
b1 *
1$
#489
0$
#490
b10100 6
1$
#491
0$
#492
b10101 6
1$
#493
0$
#494
b10110 6
1$
#495
0$
#496
b10111 6
1$
#497
0$
#498
b10 )
b11000 6
1$
#499
0$
#500
0!
b11 )
b0 6
b10 *
1$
#501
0$
#502
b10 )
b1 8
b1 7
b1 5
b0 "
b0 (
b1 6
b11 *
1$
#503
0$
#504
b11 )
bz "
bz (
b10 6
b10 *
1$
#505
0$
#506
b10 )
b10 8
b10 7
b10 5
b0 "
b0 (
b11 6
b11 *
1$
#507
0$
#508
b11 )
bz "
bz (
b100 6
b10 *
1$
#509
0$
#510
b10 )
b11 8
b11 7
b11 5
b0 "
b0 (
b101 6
b11 *
1$
#511
0$
#512
b11 )
bz "
bz (
b110 6
b10 *
1$
#513
0$
#514
b10 )
b0 8
b110 7
b100 5
b0 "
b0 (
b111 6
b11 *
1$
#515
0$
#516
b11 )
bz "
bz (
b1000 6
b10 *
1$
#517
0$
#518
b10 )
b1 8
b111 7
b101 5
b0 "
b0 (
b1001 6
b11 *
1$
#519
0$
#520
b11 )
bz "
bz (
b1010 6
b10 *
1$
#521
0$
#522
b10 )
b10 8
b1000 7
b110 5
b0 "
b0 (
b1011 6
b11 *
1$
#523
0$
#524
b11 )
bz "
bz (
b1100 6
b10 *
1$
#525
0$
#526
b10 )
b11 8
b1001 7
b111 5
b0 "
b0 (
b1101 6
b11 *
1$
#527
0$
#528
b11 )
bz "
bz (
b1110 6
b10 *
1$
#529
0$
#530
b10 )
b0 8
b1100 7
b1000 5
b0 "
b0 (
b1111 6
b11 *
1$
#531
0$
#532
b11 )
bz "
bz (
b10000 6
b10 *
1$
#533
0$
#534
b0 )
b1001 5
b0 "
b0 (
b10001 6
b11 *
1$
#535
0$
#536
1!
b1 )
b0 7
b0 5
bz "
bz (
b10010 6
b0 *
1$
#537
0$
#538
b10011 6
b1 *
1$
#539
0$
#540
b10100 6
1$
#541
0$
#542
b10101 6
1$
#543
0$
#544
b10110 6
1$
#545
0$
#546
b10111 6
1$
#547
0$
#548
b10 )
b11000 6
1$
#549
0$
#550
0!
b11 )
b0 6
b10 *
1$
#551
0$
#552
b10 )
b1 8
b1 7
b1 5
b0 "
b0 (
b1 6
b11 *
1$
#553
0$
#554
b11 )
bz "
bz (
b10 6
b10 *
1$
#555
0$
#556
b10 )
b10 8
b10 7
b10 5
b0 "
b0 (
b11 6
b11 *
1$
#557
0$
#558
b11 )
bz "
bz (
b100 6
b10 *
1$
#559
0$
#560
b10 )
b11 8
b11 7
b11 5
b0 "
b0 (
b101 6
b11 *
1$
#561
0$
#562
b11 )
bz "
bz (
b110 6
b10 *
1$
#563
0$
#564
b10 )
b0 8
b110 7
b100 5
b0 "
b0 (
b111 6
b11 *
1$
#565
0$
#566
b11 )
bz "
bz (
b1000 6
b10 *
1$
#567
0$
#568
b10 )
b1 8
b111 7
b101 5
b0 "
b0 (
b1001 6
b11 *
1$
#569
0$
#570
b11 )
bz "
bz (
b1010 6
b10 *
1$
#571
0$
#572
b10 )
b10 8
b1000 7
b110 5
b0 "
b0 (
b1011 6
b11 *
1$
#573
0$
#574
b11 )
bz "
bz (
b1100 6
b10 *
1$
#575
0$
#576
b10 )
b11 8
b1001 7
b111 5
b0 "
b0 (
b1101 6
b11 *
1$
#577
0$
#578
b11 )
bz "
bz (
b1110 6
b10 *
1$
#579
0$
#580
b10 )
b0 8
b1100 7
b1000 5
b0 "
b0 (
b1111 6
b11 *
1$
#581
0$
#582
b11 )
bz "
bz (
b10000 6
b10 *
1$
#583
0$
#584
b0 )
b1001 5
b0 "
b0 (
b10001 6
b11 *
1$
#585
0$
#586
1!
b1 )
b0 7
b0 5
bz "
bz (
b10010 6
b0 *
1$
#587
0$
#588
b10011 6
b1 *
1$
#589
0$
#590
b10100 6
1$
#591
0$
#592
b10101 6
1$
#593
0$
#594
b10110 6
1$
#595
0$
#596
b10111 6
1$
#597
0$
#598
b10 )
b11000 6
1$
#599
0$
#600
0!
b11 )
b0 6
b10 *
1$
#601
0$
#602
b10 )
b1 8
b1 7
b1 5
b0 "
b0 (
b1 6
b11 *
1$
#603
0$
#604
b11 )
bz "
bz (
b10 6
b10 *
1$
#605
0$
#606
b10 )
b10 8
b10 7
b10 5
b0 "
b0 (
b11 6
b11 *
1$
#607
0$
#608
b11 )
bz "
bz (
b100 6
b10 *
1$
#609
0$
#610
b10 )
b11 8
b11 7
b11 5
b0 "
b0 (
b101 6
b11 *
1$
#611
0$
#612
b11 )
bz "
bz (
b110 6
b10 *
1$
#613
0$
#614
b10 )
b0 8
b110 7
b100 5
b0 "
b0 (
b111 6
b11 *
1$
#615
0$
#616
b11 )
bz "
bz (
b1000 6
b10 *
1$
#617
0$
#618
b10 )
b1 8
b111 7
b101 5
b0 "
b0 (
b1001 6
b11 *
1$
#619
0$
#620
b11 )
bz "
bz (
b1010 6
b10 *
1$
#621
0$
#622
b10 )
b10 8
b1000 7
b110 5
b0 "
b0 (
b1011 6
b11 *
1$
#623
0$
#624
b11 )
bz "
bz (
b1100 6
b10 *
1$
#625
0$
#626
b10 )
b11 8
b1001 7
b111 5
b0 "
b0 (
b1101 6
b11 *
1$
#627
0$
#628
b11 )
bz "
bz (
b1110 6
b10 *
1$
#629
0$
#630
b10 )
b0 8
b1100 7
b1000 5
b0 "
b0 (
b1111 6
b11 *
1$
#631
0$
#632
b11 )
bz "
bz (
b10000 6
b10 *
1$
#633
0$
#634
b0 )
b1001 5
b0 "
b0 (
b10001 6
b11 *
1$
#635
0$
#636
1!
b1 )
b0 7
b0 5
bz "
bz (
b10010 6
b0 *
1$
#637
0$
#638
b10011 6
b1 *
1$
#639
0$
#640
b10100 6
1$
#641
0$
#642
b10101 6
1$
#643
0$
#644
b10110 6
1$
#645
0$
#646
b10111 6
1$
#647
0$
#648
b10 )
b11000 6
1$
#649
0$
#650
0!
b11 )
b0 6
b10 *
1$
#651
0$
#652
b10 )
b1 8
b1 7
b1 5
b0 "
b0 (
b1 6
b11 *
1$
#653
0$
#654
b11 )
bz "
bz (
b10 6
b10 *
1$
#655
0$
#656
b10 )
b10 8
b10 7
b10 5
b0 "
b0 (
b11 6
b11 *
1$
#657
0$
#658
b11 )
bz "
bz (
b100 6
b10 *
1$
#659
0$
#660
b10 )
b11 8
b11 7
b11 5
b0 "
b0 (
b101 6
b11 *
1$
#661
0$
#662
b11 )
bz "
bz (
b110 6
b10 *
1$
#663
0$
#664
b10 )
b0 8
b110 7
b100 5
b0 "
b0 (
b111 6
b11 *
1$
#665
0$
#666
b11 )
bz "
bz (
b1000 6
b10 *
1$
#667
0$
#668
b10 )
b1 8
b111 7
b101 5
b0 "
b0 (
b1001 6
b11 *
1$
#669
0$
#670
b11 )
bz "
bz (
b1010 6
b10 *
1$
#671
0$
#672
b10 )
b10 8
b1000 7
b110 5
b0 "
b0 (
b1011 6
b11 *
1$
#673
0$
#674
b11 )
bz "
bz (
b1100 6
b10 *
1$
#675
0$
#676
b10 )
b11 8
b1001 7
b111 5
b0 "
b0 (
b1101 6
b11 *
1$
#677
0$
#678
b11 )
bz "
bz (
b1110 6
b10 *
1$
#679
0$
#680
b10 )
b0 8
b1100 7
b1000 5
b0 "
b0 (
b1111 6
b11 *
1$
#681
0$
#682
b11 )
bz "
bz (
b10000 6
b10 *
1$
#683
0$
#684
b0 )
b1001 5
b0 "
b0 (
b10001 6
b11 *
1$
#685
0$
#686
1!
b1 )
b0 7
b0 5
bz "
bz (
b10010 6
b0 *
1$
#687
0$
#688
b10011 6
b1 *
1$
#689
0$
#690
b10100 6
1$
#691
0$
#692
b10101 6
1$
#693
0$
#694
b10110 6
1$
#695
0$
#696
b10111 6
1$
#697
0$
#698
b10 )
b11000 6
1$
#699
0$
#700
0!
b11 )
b0 6
b10 *
1$
#701
0$
#702
b10 )
b1 8
b1 7
b1 5
b0 "
b0 (
b1 6
b11 *
1$
#703
0$
#704
b11 )
bz "
bz (
b10 6
b10 *
1$
#705
0$
#706
b10 )
b10 8
b10 7
b10 5
b0 "
b0 (
b11 6
b11 *
1$
#707
0$
#708
b11 )
bz "
bz (
b100 6
b10 *
1$
#709
0$
#710
b10 )
b11 8
b11 7
b11 5
b0 "
b0 (
b101 6
b11 *
1$
#711
0$
#712
b11 )
bz "
bz (
b110 6
b10 *
1$
#713
0$
#714
b10 )
b0 8
b110 7
b100 5
b0 "
b0 (
b111 6
b11 *
1$
#715
0$
#716
b11 )
bz "
bz (
b1000 6
b10 *
1$
#717
0$
#718
b10 )
b1 8
b111 7
b101 5
b0 "
b0 (
b1001 6
b11 *
1$
#719
0$
#720
b11 )
bz "
bz (
b1010 6
b10 *
1$
#721
0$
#722
b10 )
b10 8
b1000 7
b110 5
b0 "
b0 (
b1011 6
b11 *
1$
#723
0$
#724
b11 )
bz "
bz (
b1100 6
b10 *
1$
#725
0$
#726
b10 )
b11 8
b1001 7
b111 5
b0 "
b0 (
b1101 6
b11 *
1$
#727
0$
#728
b11 )
bz "
bz (
b1110 6
b10 *
1$
#729
0$
#730
b10 )
b0 8
b1100 7
b1000 5
b0 "
b0 (
b1111 6
b11 *
1$
#731
0$
#732
b11 )
bz "
bz (
b10000 6
b10 *
1$
#733
0$
#734
b0 )
b1001 5
b0 "
b0 (
b10001 6
b11 *
1$
#735
0$
#736
1!
b1 )
b0 7
b0 5
bz "
bz (
b10010 6
b0 *
1$
#737
0$
#738
b10011 6
b1 *
1$
#739
0$
