vcd/video_stitcher_tb.vcd
$date
	Sun Apr 25 15:07:06 2021
$end
$version
	Icarus Verilog
$end
$timescale
	1ns
$end
$scope module video_stitcher_tb $end
$var wire 1 ! rw_2 $end
$var wire 1 " rw_1 $end
$var wire 1 # pause $end
$var wire 1 $ fill_now $end
$var wire 1 % data_valid $end
$var wire 1 & camera_enable $end
$var wire 8 ' camera_data [7:0] $end
$var wire 1 ( RWM_2_valid $end
$var wire 1 ) RWM_2_enable $end
$var wire 1 * RWM_2_done $end
$var wire 8 + RWM_2_data [7:0] $end
$var wire 1 , RWM_1_valid $end
$var wire 1 - RWM_1_enable $end
$var wire 1 . RWM_1_done $end
$var wire 8 / RWM_1_data [7:0] $end
$var wire 1 0 GS_valid $end
$var wire 1 1 GS_enable $end
$var wire 1 2 GS_done $end
$var wire 8 3 GS_data [7:0] $end
$var wire 16 4 Dout [15:0] $end
$var reg 1 5 clear $end
$var reg 1 6 clk $end
$var reg 1 7 rst_n $end
$var reg 1 8 start $end
$scope module FILTER $end
$var wire 1 6 clk $end
$var wire 1 7 rst $end
$var wire 1 $ fill_now $end
$var wire 1 ( data_valid $end
$var wire 16 9 Dout [15:0] $end
$var wire 8 : Din [7:0] $end
$var reg 2 ; NS [1:0] $end
$var reg 2 < PS [1:0] $end
$var reg 8 = r0 [7:0] $end
$var reg 8 > r1 [7:0] $end
$var reg 8 ? r2 [7:0] $end
$var reg 8 @ r3 [7:0] $end
$var reg 8 A r4 [7:0] $end
$var reg 8 B r5 [7:0] $end
$var reg 8 C r6 [7:0] $end
$var reg 8 D r7 [7:0] $end
$var reg 8 E r8 [7:0] $end
$var reg 16 F result [15:0] $end
$var integer 32 G count [31:0] $end
$var integer 32 H i [31:0] $end
$var integer 32 I j [31:0] $end
$var integer 32 J k [31:0] $end
$upscope $end
$scope module GS $end
$var wire 1 6 clk $end
$var wire 1 7 rst_n $end
$var wire 1 # pause $end
$var wire 1 , RWM_valid $end
$var wire 1 0 GS_valid $end
$var wire 1 1 GS_enable $end
$var wire 8 K Dout [7:0] $end
$var wire 8 L Din [7:0] $end
$var reg 2 M CS [1:0] $end
$var reg 1 2 GS_done $end
$var reg 2 N NS [1:0] $end
$var reg 8 O blue [7:0] $end
$var reg 8 P green [7:0] $end
$var reg 8 Q red [7:0] $end
$var reg 8 R result [7:0] $end
$var integer 32 S c [31:0] $end
$var integer 32 T d [31:0] $end
$upscope $end
$scope module Memory_1 $end
$var wire 1 5 clear $end
$var wire 1 6 clk $end
$var wire 1 # pause $end
$var wire 1 7 rst_n $end
$var wire 1 " rw $end
$var wire 8 U data_out [7:0] $end
$var wire 8 V data_in [7:0] $end
$var wire 1 , RWM_valid $end
$var wire 1 - RWM_enable $end
$var reg 3 W CS [2:0] $end
$var reg 3 X NS [2:0] $end
$var reg 1 . RWM_done $end
$var integer 32 Y i [31:0] $end
$var integer 32 Z j [31:0] $end
$upscope $end
$scope module Memory_2 $end
$var wire 1 0 GS_valid $end
$var wire 1 5 clear $end
$var wire 1 6 clk $end
$var wire 8 [ data_in [7:0] $end
$var wire 1 7 rst_n $end
$var wire 1 ! rw $end
$var wire 8 \ data_out [7:0] $end
$var wire 1 ( RWM_valid $end
$var wire 1 ) RWM_enable $end
$var reg 3 ] CS [2:0] $end
$var reg 3 ^ NS [2:0] $end
$var reg 1 * RWM_done $end
$var integer 32 _ i [31:0] $end
$var integer 32 ` j [31:0] $end
$upscope $end
$scope module control $end
$var wire 1 2 GS_done $end
$var wire 1 . RWM_1_done $end
$var wire 1 * RWM_2_done $end
$var wire 1 6 clk $end
$var wire 1 7 rst_n $end
$var wire 1 8 start $end
$var wire 1 ! rw_2 $end
$var wire 1 " rw_1 $end
$var wire 1 & camera_enable $end
$var wire 1 ) RWM_2_enable $end
$var wire 1 - RWM_1_enable $end
$var wire 1 1 GS_enable $end
$var reg 3 a CS [2:0] $end
$var reg 3 b NS [2:0] $end
$upscope $end
$scope module interface $end
$var wire 1 & camera_en $end
$var wire 1 6 clk $end
$var reg 8 c data_out [7:0] $end
$var reg 1 % data_valid $end
$var integer 32 d ptr [31:0] $end
$upscope $end
$upscope $end
$enddefinitions $end
#0
$dumpvars
b0 d
bz c
b0 b
b0 a
bx `
bx _
b0 ^
b0 ]
bz \
bz [
bx Z
bx Y
b0 X
b0 W
bz V
bz U
b0 T
b0 S
bx R
b0 Q
b0 P
b0 O
b0 N
b0 M
bz L
bz K
b0 J
b0 I
b0 H
b0 G
b0 F
bx E
bx D
bx C
bx B
bx A
bx @
bx ?
bx >
bx =
b0 <
b0 ;
bz :
bz 9
08
07
16
05
bz 4
bz 3
02
01
00
bz /
0.
0-
0,
bz +
0*
0)
0(
bz '
0&
0%
1$
0#
z"
z!
$end
#1
06
#2
b10 X
1-
1&
1"
b0 _
b0 Y
b1 a
b1 b
16
18
17
#3
06
#4
b1 d
b10111100 '
b10111100 V
b10111100 c
1%
b10 W
16
08
#5
06
#6
b1 Y
b10 d
b100111 '
b100111 V
b100111 c
16
#7
06
#8
b11 d
b10000001 '
b10000001 V
b10000001 c
b10 Y
16
#9
06
#10
b11 Y
b100 d
b11111111 '
b11111111 V
b11111111 c
16
#11
06
#12
b101 d
b11001110 '
b11001110 V
b11001110 c
b100 Y
16
#13
06
#14
b101 Y
b110 d
b11111 '
b11111 V
b11111 c
16
#15
06
#16
b111 d
b11100000 '
b11100000 V
b11100000 c
b110 Y
16
#17
06
#18
b111 Y
b1000 d
b10101001 '
b10101001 V
b10101001 c
16
#19
06
#20
b1001 d
b111000 '
b111000 V
b111000 c
b1000 Y
16
#21
06
#22
b1001 Y
b1010 d
b101011 '
b101011 V
b101011 c
16
#23
06
#24
b1011 d
b11010100 '
b11010100 V
b11010100 c
b1010 Y
16
#25
06
#26
b1011 Y
b1100 d
b10001 '
b10001 V
b10001 c
16
#27
06
#28
b1101 d
b10000 '
b10000 V
b10000 c
b1100 Y
16
#29
06
#30
b1101 Y
b1110 d
b1111 '
b1111 V
b1111 c
16
#31
06
#32
b1111 d
b1101110 '
b1101110 V
b1101110 c
b1110 Y
16
#33
06
#34
b1111 Y
b10000 d
b10111111 '
b10111111 V
b10111111 c
16
#35
06
#36
b10001 d
b1010000 '
b1010000 V
b1010000 c
b10000 Y
16
#37
06
#38
b10001 Y
b10010 d
b10100011 '
b10100011 V
b10100011 c
16
#39
06
#40
b10011 d
b1000101 '
b1000101 V
b1000101 c
b10010 Y
16
#41
06
#42
b10011 Y
b10100 d
b101100 '
b101100 V
b101100 c
16
#43
06
#44
b10101 d
b1000100 '
b1000100 V
b1000100 c
b10100 Y
16
#45
06
#46
b10101 Y
b10110 d
b1 '
b1 V
b1 c
16
#47
06
#48
b10111 d
b100001 '
b100001 V
b100001 c
b10110 Y
16
#49
06
#50
b10111 Y
b11000 d
b11011111 '
b11011111 V
b11011111 c
16
#51
06
#52
b11001 d
b11110 '
b11110 V
b11110 c
b11000 Y
16
#53
06
#54
b11001 Y
b11010 d
b1111111 '
b1111111 V
b1111111 c
16
#55
06
#56
b11011 d
b10000000 '
b10000000 V
b10000000 c
b11010 Y
16
#57
06
#58
b11011 Y
b11100 d
b111001 '
b111001 V
b111001 c
16
#59
06
#60
b11101 d
b1001000 '
b1001000 V
b1001000 c
b11100 Y
16
#61
06
#62
b11101 Y
b11110 d
b11001011 '
b11001011 V
b11001011 c
16
#63
06
#64
b11111 d
b11000100 '
b11000100 V
b11000100 c
b11110 Y
16
#65
06
#66
b11111 Y
b100000 d
b11001100 '
b11001100 V
b11001100 c
16
#67
06
#68
b100001 d
b10001111 '
b10001111 V
b10001111 c
b100000 Y
16
#69
06
#70
b100001 Y
b100010 d
b11110010 '
b11110010 V
b11110010 c
16
#71
06
#72
b100011 d
b11000100 '
b11000100 V
b11000100 c
b100010 Y
16
#73
06
#74
b100011 Y
b100100 d
b10000 '
b10000 V
b10000 c
16
#75
06
#76
b100101 d
b11100001 '
b11100001 V
b11100001 c
b100100 Y
16
#77
06
#78
b100101 Y
b100110 d
b10100000 '
b10100000 V
b10100000 c
16
#79
06
#80
b100111 d
b110000 '
b110000 V
b110000 c
b100110 Y
16
#81
06
#82
b100111 Y
b101000 d
b100100 '
b100100 V
b100100 c
16
#83
06
#84
b101001 d
b11010110 '
b11010110 V
b11010110 c
b101000 Y
16
#85
06
#86
b101001 Y
b101010 d
b10110 '
b10110 V
b10110 c
16
#87
06
#88
b101011 d
b10010001 '
b10010001 V
b10010001 c
b101010 Y
16
#89
06
#90
b101011 Y
b101100 d
b11111001 '
b11111001 V
b11111001 c
16
#91
06
#92
b101101 d
b1000011 '
b1000011 V
b1000011 c
b101100 Y
16
#93
06
#94
b101101 Y
b101110 d
b10011 '
b10011 V
b10011 c
16
#95
06
#96
b101111 d
b11100000 '
b11100000 V
b11100000 c
b101110 Y
16
#97
06
#98
b101111 Y
b110000 d
b10100010 '
b10100010 V
b10100010 c
16
#99
06
#100
b110001 d
b111000 '
b111000 V
b111000 c
b110000 Y
16
#101
06
#102
b110001 Y
b110010 d
b101111 '
b101111 V
b101111 c
16
#103
06
#104
b110011 d
b11010100 '
b11010100 V
b11010100 c
b110010 Y
16
#105
06
#106
b110011 Y
b110100 d
b10101 '
b10101 V
b10101 c
16
#107
06
#108
b110101 d
b10001100 '
b10001100 V
b10001100 c
b110100 Y
16
#109
06
#110
b110101 Y
b110110 d
b11111111 '
b11111111 V
b11111111 c
16
#111
06
#112
b110111 d
b11000001 '
b11000001 V
b11000001 c
b110110 Y
16
#113
06
#114
b110111 Y
b111000 d
b11111 '
b11111 V
b11111 c
16
#115
06
#116
b111001 d
b11100101 '
b11100101 V
b11100101 c
b111000 Y
16
#117
06
#118
b111001 Y
b111010 d
b10101001 '
b10101001 V
b10101001 c
16
#119
06
#120
b111011 d
b111011 '
b111011 V
b111011 c
b111010 Y
16
#121
06
#122
b111011 Y
b111100 d
b101011 '
b101011 V
b101011 c
16
#123
06
#124
b111101 d
b11011101 '
b11011101 V
b11011101 c
b111100 Y
16
#125
06
#126
b111101 Y
b111110 d
b10001 '
b10001 V
b10001 c
16
#127
06
#128
b111111 d
b10001110 '
b10001110 V
b10001110 c
b111110 Y
16
#129
06
#130
b111111 Y
b1000000 d
b11111111 '
b11111111 V
b11111111 c
16
#131
06
#132
b1000001 d
b11001010 '
b11001010 V
b11001010 c
b1000000 Y
16
#133
06
#134
b1000001 Y
b1000010 d
b11111 '
b11111 V
b11111 c
16
#135
06
#136
b1000011 d
b11101110 '
b11101110 V
b11101110 c
b1000010 Y
16
#137
06
#138
b1000011 Y
b1000100 d
b10101001 '
b10101001 V
b10101001 c
16
#139
06
#140
b1000101 d
b110111 '
b110111 V
b110111 c
b1000100 Y
16
#141
06
#142
b1000101 Y
b1000110 d
b101011 '
b101011 V
b101011 c
16
#143
06
#144
b1000111 d
b11100100 '
b11100100 V
b11100100 c
b1000110 Y
16
#145
06
#146
b1000111 Y
b1001000 d
b10001 '
b10001 V
b10001 c
16
#147
06
#148
b1001001 d
b11100001 '
b11100001 V
b11100001 c
b1001000 Y
16
#149
06
#150
b1001001 Y
b1001010 d
b11111111 '
b11111111 V
b11111111 c
16
#151
06
#152
b10 b
1.
b0 X
b0 d
b11011110 '
b11011110 V
b11011110 c
b1001010 Y
16
#153
06
#154
b11 ^
1)
b1 N
b1 X
0.
0&
0"
1!
11
b0 Y
b1 d
b10111100 '
b10111100 V
b10111100 c
b0 W
b10 a
16
#155
06
#156
b10111100 Q
b1 S
b10111100 /
b10111100 L
b10111100 U
1,
bz '
bz V
bz c
b0 d
0%
b1 M
b1 W
b11 ]
16
#157
06
#158
b100111 P
b10 S
b100111 /
b100111 L
b100111 U
b1 Y
16
#159
06
#160
b11 X
1#
b10 ^
10
b1 T
b10 N
b10000001 O
b11 S
b10000001 /
b10000001 L
b10000001 U
b10 Y
16
#161
06
#162
b1 X
0#
b11 ^
00
bz /
bz L
bz U
0,
b1 N
b1010101 R
b1010101 3
b1010101 K
b1010101 [
b11 Y
b10 ]
b11 W
b10 M
16
#163
06
#164
b1 X
0#
b11 ^
00
b11111111 Q
b1 S
bz 3
bz K
bz [
b11111111 /
b11111111 L
b11111111 U
1,
b1 _
b1 M
b1 W
b11 ]
16
#165
06
#166
b11001110 P
b10 S
b11001110 /
b11001110 L
b11001110 U
b100 Y
16
#167
06
#168
b11 X
1#
b10 ^
10
b10 T
b10 N
b11111 O
b11 S
b11111 /
b11111 L
b11111 U
b101 Y
16
#169
06
#170
b1 X
0#
b11 ^
00
bz /
bz L
bz U
0,
b1 N
b10111010 R
b10111010 3
b10111010 K
b10111010 [
b110 Y
b10 ]
b11 W
b10 M
16
#171
06
#172
b1 X
0#
b11 ^
00
b11100000 Q
b1 S
bz 3
bz K
bz [
b11100000 /
b11100000 L
b11100000 U
1,
b10 _
b1 M
b1 W
b11 ]
16
#173
06
#174
b10101001 P
b10 S
b10101001 /
b10101001 L
b10101001 U
b111 Y
16
#175
06
#176
b11 X
1#
b10 ^
10
b11 T
b10 N
b111000 O
b11 S
b111000 /
b111000 L
b111000 U
b1000 Y
16
#177
06
#178
b1 X
0#
b11 ^
00
bz /
bz L
bz U
0,
b1 N
b10100001 R
b10100001 3
b10100001 K
b10100001 [
b1001 Y
b10 ]
b11 W
b10 M
16
#179
06
#180
b1 X
0#
b11 ^
00
b101011 Q
b1 S
bz 3
bz K
bz [
b101011 /
b101011 L
b101011 U
1,
b11 _
b1 M
b1 W
b11 ]
16
#181
06
#182
b11010100 P
b10 S
b11010100 /
b11010100 L
b11010100 U
b1010 Y
16
#183
06
#184
b11 X
1#
b10 ^
10
b100 T
b10 N
b10001 O
b11 S
b10001 /
b10001 L
b10001 U
b1011 Y
16
#185
06
#186
b1 X
0#
b11 ^
00
bz /
bz L
bz U
0,
b1 N
b10000011 R
b10000011 3
b10000011 K
b10000011 [
b1100 Y
b10 ]
b11 W
b10 M
16
#187
06
#188
b1 X
0#
b11 ^
00
b10000 Q
b1 S
bz 3
bz K
bz [
b10000 /
b10000 L
b10000 U
1,
b100 _
b1 M
b1 W
b11 ]
16
#189
06
#190
b1111 P
b10 S
b1111 /
b1111 L
b1111 U
b1101 Y
16
#191
06
#192
b11 X
1#
b10 ^
10
b101 T
b10 N
b1101110 O
b11 S
b1101110 /
b1101110 L
b1101110 U
b1110 Y
16
#193
06
#194
b1 X
0#
b11 ^
00
bz /
bz L
bz U
0,
b1 N
b10100 R
b10100 3
b10100 K
b10100 [
b1111 Y
b10 ]
b11 W
b10 M
16
#195
06
#196
b1 X
0#
b11 ^
00
b10111111 Q
b1 S
bz 3
bz K
bz [
b10111111 /
b10111111 L
b10111111 U
1,
b101 _
b1 M
b1 W
b11 ]
16
#197
06
#198
b1010000 P
b10 S
b1010000 /
b1010000 L
b1010000 U
b10000 Y
16
#199
06
#200
b11 X
1#
b10 ^
10
b110 T
b10 N
b10100011 O
b11 S
b10100011 /
b10100011 L
b10100011 U
b10001 Y
16
#201
06
#202
b1 X
0#
b11 ^
00
bz /
bz L
bz U
0,
b1 N
b1110000 R
b1110000 3
b1110000 K
b1110000 [
b10010 Y
b10 ]
b11 W
b10 M
16
#203
06
#204
b1 X
0#
b11 ^
00
b1000101 Q
b1 S
bz 3
bz K
bz [
b1000101 /
b1000101 L
b1000101 U
1,
b110 _
b1 M
b1 W
b11 ]
16
#205
06
#206
b101100 P
b10 S
b101100 /
b101100 L
b101100 U
b10011 Y
16
#207
06
#208
b11 X
1#
b10 ^
10
b111 T
b10 N
b1000100 O
b11 S
b1000100 /
b1000100 L
b1000100 U
b10100 Y
16
#209
06
#210
b1 X
0#
b11 ^
00
bz /
bz L
bz U
0,
b1 N
b110001 R
b110001 3
b110001 K
b110001 [
b10101 Y
b10 ]
b11 W
b10 M
16
#211
06
#212
b1 X
0#
b11 ^
00
b1 Q
b1 S
bz 3
bz K
bz [
b1 /
b1 L
b1 U
1,
b111 _
b1 M
b1 W
b11 ]
16
#213
06
#214
b100001 P
b10 S
b100001 /
b100001 L
b100001 U
b10110 Y
16
#215
06
#216
b11 X
1#
b10 ^
10
b1000 T
b10 N
b11011111 O
b11 S
b11011111 /
b11011111 L
b11011111 U
b10111 Y
16
#217
06
#218
b1 X
0#
b11 ^
00
bz /
bz L
bz U
0,
b1 N
b100101 R
b100101 3
b100101 K
b100101 [
b11000 Y
b10 ]
b11 W
b10 M
16
#219
06
#220
b1 X
0#
b11 ^
00
b11110 Q
b1 S
bz 3
bz K
bz [
b11110 /
b11110 L
b11110 U
1,
b1000 _
b1 M
b1 W
b11 ]
16
#221
06
#222
b1111111 P
b10 S
b1111111 /
b1111111 L
b1111111 U
b11001 Y
16
#223
06
#224
b11 X
1#
b10 ^
10
b1001 T
b10 N
b10000000 O
b11 S
b10000000 /
b10000000 L
b10000000 U
b11010 Y
16
#225
06
#226
b1 X
0#
b11 ^
00
bz /
bz L
bz U
0,
b1 N
b1011001 R
b1011001 3
b1011001 K
b1011001 [
b11011 Y
b10 ]
b11 W
b10 M
16
#227
06
#228
b1 X
0#
b11 ^
00
b111001 Q
b1 S
bz 3
bz K
bz [
b111001 /
b111001 L
b111001 U
1,
b1001 _
b1 M
b1 W
b11 ]
16
#229
06
#230
b1001000 P
b10 S
b1001000 /
b1001000 L
b1001000 U
b11100 Y
16
#231
06
#232
b11 X
1#
b10 ^
10
b1010 T
b10 N
b11001011 O
b11 S
b11001011 /
b11001011 L
b11001011 U
b11101 Y
16
#233
06
#234
b1 X
0#
b11 ^
00
bz /
bz L
bz U
0,
b1 N
b1001001 R
b1001001 3
b1001001 K
b1001001 [
b11110 Y
b10 ]
b11 W
b10 M
16
#235
06
#236
b1 X
0#
b11 ^
00
b11000100 Q
b1 S
bz 3
bz K
bz [
b11000100 /
b11000100 L
b11000100 U
1,
b1010 _
b1 M
b1 W
b11 ]
16
#237
06
#238
b11001100 P
b10 S
b11001100 /
b11001100 L
b11001100 U
b11111 Y
16
#239
06
#240
b11 X
1#
b10 ^
10
b1011 T
b10 N
b10001111 O
b11 S
b10001111 /
b10001111 L
b10001111 U
b100000 Y
16
#241
06
#242
b1 X
0#
b11 ^
00
bz /
bz L
bz U
0,
b1 N
b10110101 R
b10110101 3
b10110101 K
b10110101 [
b100001 Y
b10 ]
b11 W
b10 M
16
#243
06
#244
b1 X
0#
b11 ^
00
b11110010 Q
b1 S
bz 3
bz K
bz [
b11110010 /
b11110010 L
b11110010 U
1,
b1011 _
b1 M
b1 W
b11 ]
16
#245
06
#246
b11000100 P
b10 S
b11000100 /
b11000100 L
b11000100 U
b100010 Y
16
#247
06
#248
b11 X
1#
b10 ^
10
b1100 T
b10 N
b10000 O
b11 S
b10000 /
b10000 L
b10000 U
b100011 Y
16
#249
06
#250
b1 X
0#
b11 ^
00
bz /
bz L
bz U
0,
b1 N
b10110010 R
b10110010 3
b10110010 K
b10110010 [
b100100 Y
b10 ]
b11 W
b10 M
16
#251
06
#252
b1 X
0#
b11 ^
00
b11100001 Q
b1 S
bz 3
bz K
bz [
b11100001 /
b11100001 L
b11100001 U
1,
b1100 _
b1 M
b1 W
b11 ]
16
#253
06
#254
b10100000 P
b10 S
b10100000 /
b10100000 L
b10100000 U
b100101 Y
16
#255
06
#256
b11 X
1#
b10 ^
10
b1101 T
b10 N
b110000 O
b11 S
b110000 /
b110000 L
b110000 U
b100110 Y
16
#257
06
#258
b1 X
0#
b11 ^
00
bz /
bz L
bz U
0,
b1 N
b10011101 R
b10011101 3
b10011101 K
b10011101 [
b100111 Y
b10 ]
b11 W
b10 M
16
#259
06
#260
b1 X
0#
b11 ^
00
b100100 Q
b1 S
bz 3
bz K
bz [
b100100 /
b100100 L
b100100 U
1,
b1101 _
b1 M
b1 W
b11 ]
16
#261
06
#262
b11010110 P
b10 S
b11010110 /
b11010110 L
b11010110 U
b101000 Y
16
#263
06
#264
b11 X
1#
b10 ^
10
b1110 T
b10 N
b10110 O
b11 S
b10110 /
b10110 L
b10110 U
b101001 Y
16
#265
06
#266
b1 X
0#
b11 ^
00
bz /
bz L
bz U
0,
b1 N
b10000011 R
b10000011 3
b10000011 K
b10000011 [
b101010 Y
b10 ]
b11 W
b10 M
16
#267
06
#268
b1 X
0#
b11 ^
00
b10010001 Q
b1 S
bz 3
bz K
bz [
b10010001 /
b10010001 L
b10010001 U
1,
b1110 _
b1 M
b1 W
b11 ]
16
#269
06
#270
b11111001 P
b10 S
b11111001 /
b11111001 L
b11111001 U
b101011 Y
16
#271
06
#272
b11 X
1#
b10 ^
10
b1111 T
b10 N
b1000011 O
b11 S
b1000011 /
b1000011 L
b1000011 U
b101100 Y
16
#273
06
#274
b1 X
0#
b11 ^
00
bz /
bz L
bz U
0,
b1 N
b10111001 R
b10111001 3
b10111001 K
b10111001 [
b101101 Y
b10 ]
b11 W
b10 M
16
#275
06
#276
b1 X
0#
b11 ^
00
b10011 Q
b1 S
bz 3
bz K
bz [
b10011 /
b10011 L
b10011 U
1,
b1111 _
b1 M
b1 W
b11 ]
16
#277
06
#278
b11100000 P
b10 S
b11100000 /
b11100000 L
b11100000 U
b101110 Y
16
#279
06
#280
b11 X
1#
b10 ^
10
b10000 T
b10 N
b10100010 O
b11 S
b10100010 /
b10100010 L
b10100010 U
b101111 Y
16
#281
06
#282
b1 X
0#
b11 ^
00
bz /
bz L
bz U
0,
b1 N
b10010001 R
b10010001 3
b10010001 K
b10010001 [
b110000 Y
b10 ]
b11 W
b10 M
16
#283
06
#284
b1 X
0#
b11 ^
00
b111000 Q
b1 S
bz 3
bz K
bz [
b111000 /
b111000 L
b111000 U
1,
b10000 _
b1 M
b1 W
b11 ]
16
#285
06
#286
b101111 P
b10 S
b101111 /
b101111 L
b101111 U
b110001 Y
16
#287
06
#288
b11 X
1#
b10 ^
10
b10001 T
b10 N
b11010100 O
b11 S
b11010100 /
b11010100 L
b11010100 U
b110010 Y
16
#289
06
#290
b1 X
0#
b11 ^
00
bz /
bz L
bz U
0,
b1 N
b111011 R
b111011 3
b111011 K
b111011 [
b110011 Y
b10 ]
b11 W
b10 M
16
#291
06
#292
b1 X
0#
b11 ^
00
b10101 Q
b1 S
bz 3
bz K
bz [
b10101 /
b10101 L
b10101 U
1,
b10001 _
b1 M
b1 W
b11 ]
16
#293
06
#294
b10001100 P
b10 S
b10001100 /
b10001100 L
b10001100 U
b110100 Y
16
#295
06
#296
b11 X
1#
b10 ^
10
b10010 T
b10 N
b11111111 O
b11 S
b11111111 /
b11111111 L
b11111111 U
b110101 Y
16
#297
06
#298
b1 X
0#
b11 ^
00
bz /
bz L
bz U
0,
b1 N
b1101001 R
b1101001 3
b1101001 K
b1101001 [
b110110 Y
b10 ]
b11 W
b10 M
16
#299
06
#300
b1 X
0#
b11 ^
00
b11000001 Q
b1 S
bz 3
bz K
bz [
b11000001 /
b11000001 L
b11000001 U
1,
b10010 _
b1 M
b1 W
b11 ]
16
#301
06
#302
b11111 P
b10 S
b11111 /
b11111 L
b11111 U
b110111 Y
16
#303
06
#304
b11 X
1#
b10 ^
10
b10011 T
b10 N
b11100101 O
b11 S
b11100101 /
b11100101 L
b11100101 U
b111000 Y
16
#305
06
#306
b1 X
0#
b11 ^
00
bz /
bz L
bz U
0,
b1 N
b1011011 R
b1011011 3
b1011011 K
b1011011 [
b111001 Y
b10 ]
b11 W
b10 M
16
#307
06
#308
b1 X
0#
b11 ^
00
b10101001 Q
b1 S
bz 3
bz K
bz [
b10101001 /
b10101001 L
b10101001 U
1,
b10011 _
b1 M
b1 W
b11 ]
16
#309
06
#310
b111011 P
b10 S
b111011 /
b111011 L
b111011 U
b111010 Y
16
#311
06
#312
b11 X
1#
b10 ^
10
b10100 T
b10 N
b101011 O
b11 S
b101011 /
b101011 L
b101011 U
b111011 Y
16
#313
06
#314
b1 X
0#
b11 ^
00
bz /
bz L
bz U
0,
b1 N
b1010010 R
b1010010 3
b1010010 K
b1010010 [
b111100 Y
b10 ]
b11 W
b10 M
16
#315
06
#316
b1 X
0#
b11 ^
00
b11011101 Q
b1 S
bz 3
bz K
bz [
b11011101 /
b11011101 L
b11011101 U
1,
b10100 _
b1 M
b1 W
b11 ]
16
#317
06
#318
b10001 P
b10 S
b10001 /
b10001 L
b10001 U
b111101 Y
16
#319
06
#320
b11 X
1#
b10 ^
10
b10101 T
b10 N
b10001110 O
b11 S
b10001110 /
b10001110 L
b10001110 U
b111110 Y
16
#321
06
#322
b1 X
0#
b11 ^
00
bz /
bz L
bz U
0,
b1 N
b1010010 3
b1010010 K
b1010010 [
b111111 Y
b10 ]
b11 W
b10 M
16
#323
06
#324
b1 X
0#
b11 ^
00
b11111111 Q
b1 S
bz 3
bz K
bz [
b11111111 /
b11111111 L
b11111111 U
1,
b10101 _
b1 M
b1 W
b11 ]
16
#325
06
#326
b11001010 P
b10 S
b11001010 /
b11001010 L
b11001010 U
b1000000 Y
16
#327
06
#328
b11 X
1#
b10 ^
10
b10110 T
b10 N
b11111 O
b11 S
b11111 /
b11111 L
b11111 U
b1000001 Y
16
#329
06
#330
b1 X
0#
b11 ^
00
bz /
bz L
bz U
0,
b1 N
b10111000 R
b10111000 3
b10111000 K
b10111000 [
b1000010 Y
b10 ]
b11 W
b10 M
16
#331
06
#332
b1 X
0#
b11 ^
00
b11101110 Q
b1 S
bz 3
bz K
bz [
b11101110 /
b11101110 L
b11101110 U
1,
b10110 _
b1 M
b1 W
b11 ]
16
#333
06
#334
b10101001 P
b10 S
b10101001 /
b10101001 L
b10101001 U
b1000011 Y
16
#335
06
#336
b11 X
1#
b10 ^
10
b10111 T
b10 N
b110111 O
b11 S
b110111 /
b110111 L
b110111 U
b1000100 Y
16
#337
06
#338
b1 X
0#
b11 ^
00
bz /
bz L
bz U
0,
b1 N
b10100100 R
b10100100 3
b10100100 K
b10100100 [
b1000101 Y
b10 ]
b11 W
b10 M
16
#339
06
#340
b1 X
0#
b11 ^
00
b101011 Q
b1 S
bz 3
bz K
bz [
b101011 /
b101011 L
b101011 U
1,
b10111 _
b1 M
b1 W
b11 ]
16
#341
06
#342
b11100100 P
b10 S
b11100100 /
b11100100 L
b11100100 U
b1000110 Y
16
#343
06
#344
b11 X
1#
b10 ^
10
b11000 T
b10 N
b10001 O
b11 S
b10001 /
b10001 L
b10001 U
b1000111 Y
16
#345
06
#346
b1 X
0#
b11 ^
00
bz /
bz L
bz U
0,
b1 N
b10001100 R
b10001100 3
b10001100 K
b10001100 [
b1001000 Y
b10 ]
b11 W
b10 M
16
#347
06
#348
b1 X
0#
b11 ^
00
b11100001 Q
b1 S
bz 3
bz K
bz [
b11100001 /
b11100001 L
b11100001 U
1,
b11000 _
b1 M
b1 W
b11 ]
16
#349
06
#350
b11111111 P
b10 S
b11111111 /
b11111111 L
b11111111 U
b1001001 Y
16
#351
06
#352
b10 ^
10
b11 b
b11001 T
b10 N
b11011110 O
b11 S
1.
b0 X
b11011110 /
b11011110 L
b11011110 U
b1001010 Y
16
#353
06
#354
00
0-
z"
1*
b0 ^
b0 X
0.
bz /
bz L
bz U
0,
12
b0 N
b11100000 R
b11100000 3
b11100000 K
b11100000 [
0!
01
b0 Y
b10 ]
b0 W
b10 M
b11 a
16
#355
06
#356
b1 ^
0*
02
b0 O
b0 P
b0 Q
b0 S
b0 T
bz 3
bz K
bz [
b0 _
b0 M
b0 ]
16
#357
06
#358
b1 ;
b1010101 +
b1010101 :
b1010101 \
1(
b1 ]
16
#359
06
#360
b10111010 +
b10111010 :
b10111010 \
b1 _
b1 H
b1 <
16
#361
06
#362
b10100001 +
b10100001 :
b10100001 \
b10 H
b10 _
16
#363
06
#364
b10000011 +
b10000011 :
b10000011 \
b11 _
b11 H
16
#365
06
#366
b10100 +
b10100 :
b10100 \
b100 H
b100 _
16
#367
06
#368
b1110000 +
b1110000 :
b1110000 \
b101 _
b101 H
16
#369
06
#370
b110001 +
b110001 :
b110001 \
b110 H
b110 _
16
#371
06
#372
b100101 +
b100101 :
b100101 \
b111 _
b111 H
16
#373
06
#374
b1011001 +
b1011001 :
b1011001 \
b1000 H
b1000 _
16
#375
06
#376
b1001001 +
b1001001 :
b1001001 \
b1001 _
b1001 H
16
#377
06
#378
b10110101 +
b10110101 :
b10110101 \
b1010 H
b1010 _
16
#379
06
#380
b10110010 +
b10110010 :
b10110010 \
b1011 _
b1011 H
16
#381
06
#382
b10011101 +
b10011101 :
b10011101 \
b1100 H
b1100 _
16
#383
06
#384
b10000011 +
b10000011 :
b10000011 \
b1101 _
b1101 H
16
#385
06
#386
b10111001 +
b10111001 :
b10111001 \
b1110 H
b1110 _
16
#387
06
#388
b10010001 +
b10010001 :
b10010001 \
b1111 _
b1111 H
16
#389
06
#390
b111011 +
b111011 :
b111011 \
b10000 H
b10000 _
16
#391
06
#392
b1101001 +
b1101001 :
b1101001 \
b10001 _
b10001 H
16
#393
06
#394
b1011011 +
b1011011 :
b1011011 \
b10010 H
b10010 _
16
#395
06
#396
b1010010 +
b1010010 :
b1010010 \
b10011 _
b10011 H
16
#397
06
#398
b10100 H
b10100 _
16
#399
06
#400
b10111000 +
b10111000 :
b10111000 \
b10101 _
b10101 H
16
#401
06
#402
b10100100 +
b10100100 :
b10100100 \
b10110 H
b10110 _
16
#403
06
#404
b10001100 +
b10001100 :
b10001100 \
b10111 _
b10111 H
16
#405
06
#406
b0 b
b10 ;
1*
b0 ^
b11100000 +
b11100000 :
b11100000 \
b11000 H
b11000 _
16
#407
06
#408
0$
0)
z!
b0 ^
0*
b11 ;
b10011101 E
b10110010 D
b10110101 C
b100101 B
b110001 A
b1110000 @
b10100001 ?
b10111010 >
b1010101 =
bz +
bz :
bz \
0(
b0 _
b0 H
b10 <
b0 a
b0 ]
16
#409
06
