vcd/video_stitcher_tb.vcd
$date
	Fri Apr 30 19:54:21 2021
$end
$version
	Icarus Verilog
$end
$timescale
	1ns
$end
$scope module video_stitcher_tb $end
$var wire 1 ! rw_2 $end
$var wire 1 " rw_1 $end
$var wire 1 # pause $end
$var wire 1 $ fill_now $end
$var wire 1 % data_valid $end
$var wire 1 & camera_enable $end
$var wire 8 ' camera_data [7:0] $end
$var wire 1 ( RWM_2_valid $end
$var wire 1 ) RWM_2_enable $end
$var wire 1 * RWM_2_done $end
$var wire 8 + RWM_2_data [7:0] $end
$var wire 1 , RWM_1_valid $end
$var wire 1 - RWM_1_enable $end
$var wire 1 . RWM_1_done $end
$var wire 8 / RWM_1_data [7:0] $end
$var wire 1 0 GS_valid $end
$var wire 1 1 GS_enable $end
$var wire 1 2 GS_done $end
$var wire 8 3 GS_data [7:0] $end
$var wire 16 4 Dout [15:0] $end
$var reg 1 5 clear $end
$var reg 1 6 clk $end
$var reg 1 7 rst_n $end
$var reg 1 8 start $end
$scope module FILTER $end
$var wire 1 6 clk $end
$var wire 1 7 rst $end
$var wire 1 $ fill_now $end
$var wire 1 ( data_valid $end
$var wire 16 9 Dout [15:0] $end
$var wire 8 : Din [7:0] $end
$var reg 2 ; NS [1:0] $end
$var reg 2 < PS [1:0] $end
$var reg 16 = result [15:0] $end
$var reg 16 > result0 [15:0] $end
$var reg 16 ? result1 [15:0] $end
$var reg 16 @ result2 [15:0] $end
$var reg 16 A result3 [15:0] $end
$var integer 32 B count [31:0] $end
$var integer 32 C i [31:0] $end
$var integer 32 D j [31:0] $end
$var integer 32 E k [31:0] $end
$upscope $end
$scope module GS $end
$var wire 1 6 clk $end
$var wire 1 7 rst_n $end
$var wire 1 # pause $end
$var wire 1 , RWM_valid $end
$var wire 1 0 GS_valid $end
$var wire 1 1 GS_enable $end
$var wire 8 F Dout [7:0] $end
$var wire 8 G Din [7:0] $end
$var reg 2 H CS [1:0] $end
$var reg 1 2 GS_done $end
$var reg 2 I NS [1:0] $end
$var reg 8 J blue [7:0] $end
$var reg 8 K green [7:0] $end
$var reg 8 L red [7:0] $end
$var reg 8 M result [7:0] $end
$var integer 32 N c [31:0] $end
$var integer 32 O d [31:0] $end
$upscope $end
$scope module Memory_1 $end
$var wire 1 5 clear $end
$var wire 1 6 clk $end
$var wire 1 # pause $end
$var wire 1 7 rst_n $end
$var wire 1 " rw $end
$var wire 8 P data_out [7:0] $end
$var wire 8 Q data_in [7:0] $end
$var wire 1 , RWM_valid $end
$var wire 1 - RWM_enable $end
$var reg 3 R CS [2:0] $end
$var reg 3 S NS [2:0] $end
$var reg 1 . RWM_done $end
$var integer 32 T i [31:0] $end
$var integer 32 U j [31:0] $end
$upscope $end
$scope module Memory_2 $end
$var wire 1 0 GS_valid $end
$var wire 1 5 clear $end
$var wire 1 6 clk $end
$var wire 8 V data_in [7:0] $end
$var wire 1 7 rst_n $end
$var wire 1 ! rw $end
$var wire 8 W data_out [7:0] $end
$var wire 1 ( RWM_valid $end
$var wire 1 ) RWM_enable $end
$var reg 3 X CS [2:0] $end
$var reg 3 Y NS [2:0] $end
$var reg 1 * RWM_done $end
$var integer 32 Z i [31:0] $end
$var integer 32 [ j [31:0] $end
$upscope $end
$scope module control $end
$var wire 1 2 GS_done $end
$var wire 1 . RWM_1_done $end
$var wire 1 * RWM_2_done $end
$var wire 1 6 clk $end
$var wire 1 7 rst_n $end
$var wire 1 8 start $end
$var wire 1 ! rw_2 $end
$var wire 1 " rw_1 $end
$var wire 1 & camera_enable $end
$var wire 1 ) RWM_2_enable $end
$var wire 1 - RWM_1_enable $end
$var wire 1 1 GS_enable $end
$var reg 3 \ CS [2:0] $end
$var reg 3 ] NS [2:0] $end
$upscope $end
$scope module interface $end
$var wire 1 & camera_en $end
$var wire 1 6 clk $end
$var reg 8 ^ data_out [7:0] $end
$var reg 1 % data_valid $end
$var integer 32 _ ptr [31:0] $end
$upscope $end
$upscope $end
$enddefinitions $end
#0
$dumpvars
b0 _
bz ^
b0 ]
b0 \
bx [
bx Z
b0 Y
b0 X
bz W
bz V
bx U
bx T
b0 S
b0 R
bz Q
bz P
b0 O
b0 N
bx M
b0 L
b0 K
b0 J
b0 I
b0 H
bz G
bz F
b0 E
b0 D
b0 C
b0 B
b0 A
b0 @
b0 ?
b0 >
b0 =
b0 <
b0 ;
bz :
bz 9
08
07
16
05
bz 4
bz 3
02
01
00
bz /
0.
0-
0,
bz +
0*
0)
0(
bz '
0&
0%
1$
0#
z"
z!
$end
#1
06
#2
b10 S
1-
1&
1"
b0 Z
b0 T
b1 \
b1 ]
16
18
17
#3
06
#4
b1 _
b10111100 '
b10111100 Q
b10111100 ^
1%
b10 R
16
08
#5
06
#6
b1 T
b10 _
b100111 '
b100111 Q
b100111 ^
16
#7
06
#8
b11 _
b10000001 '
b10000001 Q
b10000001 ^
b10 T
16
#9
06
#10
b11 T
b100 _
b11111111 '
b11111111 Q
b11111111 ^
16
#11
06
#12
b101 _
b11001110 '
b11001110 Q
b11001110 ^
b100 T
16
#13
06
#14
b101 T
b110 _
b11111 '
b11111 Q
b11111 ^
16
#15
06
#16
b111 _
b11100000 '
b11100000 Q
b11100000 ^
b110 T
16
#17
06
#18
b111 T
b1000 _
b10101001 '
b10101001 Q
b10101001 ^
16
#19
06
#20
b1001 _
b111000 '
b111000 Q
b111000 ^
b1000 T
16
#21
06
#22
b1001 T
b1010 _
b101011 '
b101011 Q
b101011 ^
16
#23
06
#24
b1011 _
b11010100 '
b11010100 Q
b11010100 ^
b1010 T
16
#25
06
#26
b1011 T
b1100 _
b10001 '
b10001 Q
b10001 ^
16
#27
06
#28
b1101 _
b10000 '
b10000 Q
b10000 ^
b1100 T
16
#29
06
#30
b1101 T
b1110 _
b1111 '
b1111 Q
b1111 ^
16
#31
06
#32
b1111 _
b1101110 '
b1101110 Q
b1101110 ^
b1110 T
16
#33
06
#34
b1111 T
b10000 _
b10111111 '
b10111111 Q
b10111111 ^
16
#35
06
#36
b10001 _
b1010000 '
b1010000 Q
b1010000 ^
b10000 T
16
#37
06
#38
b10001 T
b10010 _
b10100011 '
b10100011 Q
b10100011 ^
16
#39
06
#40
b10011 _
b1000101 '
b1000101 Q
b1000101 ^
b10010 T
16
#41
06
#42
b10011 T
b10100 _
b101100 '
b101100 Q
b101100 ^
16
#43
06
#44
b10101 _
b1000100 '
b1000100 Q
b1000100 ^
b10100 T
16
#45
06
#46
b10101 T
b10110 _
b1 '
b1 Q
b1 ^
16
#47
06
#48
b10111 _
b100001 '
b100001 Q
b100001 ^
b10110 T
16
#49
06
#50
b10111 T
b11000 _
b11011111 '
b11011111 Q
b11011111 ^
16
#51
06
#52
b11001 _
b11110 '
b11110 Q
b11110 ^
b11000 T
16
#53
06
#54
b11001 T
b11010 _
b1111111 '
b1111111 Q
b1111111 ^
16
#55
06
#56
b11011 _
b10000000 '
b10000000 Q
b10000000 ^
b11010 T
16
#57
06
#58
b11011 T
b11100 _
b111001 '
b111001 Q
b111001 ^
16
#59
06
#60
b11101 _
b1001000 '
b1001000 Q
b1001000 ^
b11100 T
16
#61
06
#62
b11101 T
b11110 _
b11001011 '
b11001011 Q
b11001011 ^
16
#63
06
#64
b11111 _
b11000100 '
b11000100 Q
b11000100 ^
b11110 T
16
#65
06
#66
b11111 T
b100000 _
b11001100 '
b11001100 Q
b11001100 ^
16
#67
06
#68
b100001 _
b10001111 '
b10001111 Q
b10001111 ^
b100000 T
16
#69
06
#70
b100001 T
b100010 _
b11110010 '
b11110010 Q
b11110010 ^
16
#71
06
#72
b100011 _
b11000100 '
b11000100 Q
b11000100 ^
b100010 T
16
#73
06
#74
b100011 T
b100100 _
b10000 '
b10000 Q
b10000 ^
16
#75
06
#76
b100101 _
b11100001 '
b11100001 Q
b11100001 ^
b100100 T
16
#77
06
#78
b100101 T
b100110 _
b10100000 '
b10100000 Q
b10100000 ^
16
#79
06
#80
b100111 _
b110000 '
b110000 Q
b110000 ^
b100110 T
16
#81
06
#82
b100111 T
b101000 _
b100100 '
b100100 Q
b100100 ^
16
#83
06
#84
b101001 _
b11010110 '
b11010110 Q
b11010110 ^
b101000 T
16
#85
06
#86
b101001 T
b101010 _
b10110 '
b10110 Q
b10110 ^
16
#87
06
#88
b101011 _
b10010001 '
b10010001 Q
b10010001 ^
b101010 T
16
#89
06
#90
b101011 T
b101100 _
b11111001 '
b11111001 Q
b11111001 ^
16
#91
06
#92
b101101 _
b1000011 '
b1000011 Q
b1000011 ^
b101100 T
16
#93
06
#94
b101101 T
b101110 _
b10011 '
b10011 Q
b10011 ^
16
#95
06
#96
b101111 _
b11100000 '
b11100000 Q
b11100000 ^
b101110 T
16
#97
06
#98
b101111 T
b110000 _
b10100010 '
b10100010 Q
b10100010 ^
16
#99
06
#100
b110001 _
b111000 '
b111000 Q
b111000 ^
b110000 T
16
#101
06
#102
b110001 T
b110010 _
b101111 '
b101111 Q
b101111 ^
16
#103
06
#104
b110011 _
b11010100 '
b11010100 Q
b11010100 ^
b110010 T
16
#105
06
#106
b110011 T
b110100 _
b10101 '
b10101 Q
b10101 ^
16
#107
06
#108
b110101 _
b10001100 '
b10001100 Q
b10001100 ^
b110100 T
16
#109
06
#110
b110101 T
b110110 _
b11111111 '
b11111111 Q
b11111111 ^
16
#111
06
#112
b110111 _
b11000001 '
b11000001 Q
b11000001 ^
b110110 T
16
#113
06
#114
b110111 T
b111000 _
b11111 '
b11111 Q
b11111 ^
16
#115
06
#116
b111001 _
b11100101 '
b11100101 Q
b11100101 ^
b111000 T
16
#117
06
#118
b111001 T
b111010 _
b10101001 '
b10101001 Q
b10101001 ^
16
#119
06
#120
b111011 _
b111011 '
b111011 Q
b111011 ^
b111010 T
16
#121
06
#122
b111011 T
b111100 _
b101011 '
b101011 Q
b101011 ^
16
#123
06
#124
b111101 _
b11011101 '
b11011101 Q
b11011101 ^
b111100 T
16
#125
06
#126
b111101 T
b111110 _
b10001 '
b10001 Q
b10001 ^
16
#127
06
#128
b111111 _
b10001110 '
b10001110 Q
b10001110 ^
b111110 T
16
#129
06
#130
b111111 T
b1000000 _
b11111111 '
b11111111 Q
b11111111 ^
16
#131
06
#132
b1000001 _
b11001010 '
b11001010 Q
b11001010 ^
b1000000 T
16
#133
06
#134
b1000001 T
b1000010 _
b11111 '
b11111 Q
b11111 ^
16
#135
06
#136
b1000011 _
b11101110 '
b11101110 Q
b11101110 ^
b1000010 T
16
#137
06
#138
b1000011 T
b1000100 _
b10101001 '
b10101001 Q
b10101001 ^
16
#139
06
#140
b1000101 _
b110111 '
b110111 Q
b110111 ^
b1000100 T
16
#141
06
#142
b1000101 T
b1000110 _
b101011 '
b101011 Q
b101011 ^
16
#143
06
#144
b1000111 _
b11100100 '
b11100100 Q
b11100100 ^
b1000110 T
16
#145
06
#146
b1000111 T
b1001000 _
b10001 '
b10001 Q
b10001 ^
16
#147
06
#148
b1001001 _
b11100001 '
b11100001 Q
b11100001 ^
b1001000 T
16
#149
06
#150
b1001001 T
b1001010 _
b11111111 '
b11111111 Q
b11111111 ^
16
#151
06
#152
b10 ]
1.
b0 S
b0 _
b11011110 '
b11011110 Q
b11011110 ^
b1001010 T
16
#153
06
#154
b11 Y
1)
b1 I
b1 S
0.
0&
0"
1!
11
b0 T
b1 _
b10111100 '
b10111100 Q
b10111100 ^
b0 R
b10 \
16
#155
06
#156
b10111100 L
b1 N
b10111100 /
b10111100 G
b10111100 P
1,
bz '
bz Q
bz ^
b0 _
0%
b1 H
b1 R
b11 X
16
#157
06
#158
b100111 K
b10 N
b100111 /
b100111 G
b100111 P
b1 T
16
#159
06
#160
b11 S
1#
b10 Y
10
b1 O
b10 I
b10000001 J
b11 N
b10000001 /
b10000001 G
b10000001 P
b10 T
16
#161
06
#162
b1 S
0#
b11 Y
00
bz /
bz G
bz P
0,
b1 I
b1010101 M
b1010101 3
b1010101 F
b1010101 V
b11 T
b10 X
b11 R
b10 H
16
#163
06
#164
b1 S
0#
b11 Y
00
b11111111 L
b1 N
bz 3
bz F
bz V
b11111111 /
b11111111 G
b11111111 P
1,
b1 Z
b1 H
b1 R
b11 X
16
#165
06
#166
b11001110 K
b10 N
b11001110 /
b11001110 G
b11001110 P
b100 T
16
#167
06
#168
b11 S
1#
b10 Y
10
b10 O
b10 I
b11111 J
b11 N
b11111 /
b11111 G
b11111 P
b101 T
16
#169
06
#170
b1 S
0#
b11 Y
00
bz /
bz G
bz P
0,
b1 I
b10111010 M
b10111010 3
b10111010 F
b10111010 V
b110 T
b10 X
b11 R
b10 H
16
#171
06
#172
b1 S
0#
b11 Y
00
b11100000 L
b1 N
bz 3
bz F
bz V
b11100000 /
b11100000 G
b11100000 P
1,
b10 Z
b1 H
b1 R
b11 X
16
#173
06
#174
b10101001 K
b10 N
b10101001 /
b10101001 G
b10101001 P
b111 T
16
#175
06
#176
b11 S
1#
b10 Y
10
b11 O
b10 I
b111000 J
b11 N
b111000 /
b111000 G
b111000 P
b1000 T
16
#177
06
#178
b1 S
0#
b11 Y
00
bz /
bz G
bz P
0,
b1 I
b10100001 M
b10100001 3
b10100001 F
b10100001 V
b1001 T
b10 X
b11 R
b10 H
16
#179
06
#180
b1 S
0#
b11 Y
00
b101011 L
b1 N
bz 3
bz F
bz V
b101011 /
b101011 G
b101011 P
1,
b11 Z
b1 H
b1 R
b11 X
16
#181
06
#182
b11010100 K
b10 N
b11010100 /
b11010100 G
b11010100 P
b1010 T
16
#183
06
#184
b11 S
1#
b10 Y
10
b100 O
b10 I
b10001 J
b11 N
b10001 /
b10001 G
b10001 P
b1011 T
16
#185
06
#186
b1 S
0#
b11 Y
00
bz /
bz G
bz P
0,
b1 I
b10000011 M
b10000011 3
b10000011 F
b10000011 V
b1100 T
b10 X
b11 R
b10 H
16
#187
06
#188
b1 S
0#
b11 Y
00
b10000 L
b1 N
bz 3
bz F
bz V
b10000 /
b10000 G
b10000 P
1,
b100 Z
b1 H
b1 R
b11 X
16
#189
06
#190
b1111 K
b10 N
b1111 /
b1111 G
b1111 P
b1101 T
16
#191
06
#192
b11 S
1#
b10 Y
10
b101 O
b10 I
b1101110 J
b11 N
b1101110 /
b1101110 G
b1101110 P
b1110 T
16
#193
06
#194
b1 S
0#
b11 Y
00
bz /
bz G
bz P
0,
b1 I
b10100 M
b10100 3
b10100 F
b10100 V
b1111 T
b10 X
b11 R
b10 H
16
#195
06
#196
b1 S
0#
b11 Y
00
b10111111 L
b1 N
bz 3
bz F
bz V
b10111111 /
b10111111 G
b10111111 P
1,
b101 Z
b1 H
b1 R
b11 X
16
#197
06
#198
b1010000 K
b10 N
b1010000 /
b1010000 G
b1010000 P
b10000 T
16
#199
06
#200
b11 S
1#
b10 Y
10
b110 O
b10 I
b10100011 J
b11 N
b10100011 /
b10100011 G
b10100011 P
b10001 T
16
#201
06
#202
b1 S
0#
b11 Y
00
bz /
bz G
bz P
0,
b1 I
b1110000 M
b1110000 3
b1110000 F
b1110000 V
b10010 T
b10 X
b11 R
b10 H
16
#203
06
#204
b1 S
0#
b11 Y
00
b1000101 L
b1 N
bz 3
bz F
bz V
b1000101 /
b1000101 G
b1000101 P
1,
b110 Z
b1 H
b1 R
b11 X
16
#205
06
#206
b101100 K
b10 N
b101100 /
b101100 G
b101100 P
b10011 T
16
#207
06
#208
b11 S
1#
b10 Y
10
b111 O
b10 I
b1000100 J
b11 N
b1000100 /
b1000100 G
b1000100 P
b10100 T
16
#209
06
#210
b1 S
0#
b11 Y
00
bz /
bz G
bz P
0,
b1 I
b110001 M
b110001 3
b110001 F
b110001 V
b10101 T
b10 X
b11 R
b10 H
16
#211
06
#212
b1 S
0#
b11 Y
00
b1 L
b1 N
bz 3
bz F
bz V
b1 /
b1 G
b1 P
1,
b111 Z
b1 H
b1 R
b11 X
16
#213
06
#214
b100001 K
b10 N
b100001 /
b100001 G
b100001 P
b10110 T
16
#215
06
#216
b11 S
1#
b10 Y
10
b1000 O
b10 I
b11011111 J
b11 N
b11011111 /
b11011111 G
b11011111 P
b10111 T
16
#217
06
#218
b1 S
0#
b11 Y
00
bz /
bz G
bz P
0,
b1 I
b100101 M
b100101 3
b100101 F
b100101 V
b11000 T
b10 X
b11 R
b10 H
16
#219
06
#220
b1 S
0#
b11 Y
00
b11110 L
b1 N
bz 3
bz F
bz V
b11110 /
b11110 G
b11110 P
1,
b1000 Z
b1 H
b1 R
b11 X
16
#221
06
#222
b1111111 K
b10 N
b1111111 /
b1111111 G
b1111111 P
b11001 T
16
#223
06
#224
b11 S
1#
b10 Y
10
b1001 O
b10 I
b10000000 J
b11 N
b10000000 /
b10000000 G
b10000000 P
b11010 T
16
#225
06
#226
b1 S
0#
b11 Y
00
bz /
bz G
bz P
0,
b1 I
b1011001 M
b1011001 3
b1011001 F
b1011001 V
b11011 T
b10 X
b11 R
b10 H
16
#227
06
#228
b1 S
0#
b11 Y
00
b111001 L
b1 N
bz 3
bz F
bz V
b111001 /
b111001 G
b111001 P
1,
b1001 Z
b1 H
b1 R
b11 X
16
#229
06
#230
b1001000 K
b10 N
b1001000 /
b1001000 G
b1001000 P
b11100 T
16
#231
06
#232
b11 S
1#
b10 Y
10
b1010 O
b10 I
b11001011 J
b11 N
b11001011 /
b11001011 G
b11001011 P
b11101 T
16
#233
06
#234
b1 S
0#
b11 Y
00
bz /
bz G
bz P
0,
b1 I
b1001001 M
b1001001 3
b1001001 F
b1001001 V
b11110 T
b10 X
b11 R
b10 H
16
#235
06
#236
b1 S
0#
b11 Y
00
b11000100 L
b1 N
bz 3
bz F
bz V
b11000100 /
b11000100 G
b11000100 P
1,
b1010 Z
b1 H
b1 R
b11 X
16
#237
06
#238
b11001100 K
b10 N
b11001100 /
b11001100 G
b11001100 P
b11111 T
16
#239
06
#240
b11 S
1#
b10 Y
10
b1011 O
b10 I
b10001111 J
b11 N
b10001111 /
b10001111 G
b10001111 P
b100000 T
16
#241
06
#242
b1 S
0#
b11 Y
00
bz /
bz G
bz P
0,
b1 I
b10110101 M
b10110101 3
b10110101 F
b10110101 V
b100001 T
b10 X
b11 R
b10 H
16
#243
06
#244
b1 S
0#
b11 Y
00
b11110010 L
b1 N
bz 3
bz F
bz V
b11110010 /
b11110010 G
b11110010 P
1,
b1011 Z
b1 H
b1 R
b11 X
16
#245
06
#246
b11000100 K
b10 N
b11000100 /
b11000100 G
b11000100 P
b100010 T
16
#247
06
#248
b11 S
1#
b10 Y
10
b1100 O
b10 I
b10000 J
b11 N
b10000 /
b10000 G
b10000 P
b100011 T
16
#249
06
#250
b1 S
0#
b11 Y
00
bz /
bz G
bz P
0,
b1 I
b10110010 M
b10110010 3
b10110010 F
b10110010 V
b100100 T
b10 X
b11 R
b10 H
16
#251
06
#252
b1 S
0#
b11 Y
00
b11100001 L
b1 N
bz 3
bz F
bz V
b11100001 /
b11100001 G
b11100001 P
1,
b1100 Z
b1 H
b1 R
b11 X
16
#253
06
#254
b10100000 K
b10 N
b10100000 /
b10100000 G
b10100000 P
b100101 T
16
#255
06
#256
b11 S
1#
b10 Y
10
b1101 O
b10 I
b110000 J
b11 N
b110000 /
b110000 G
b110000 P
b100110 T
16
#257
06
#258
b1 S
0#
b11 Y
00
bz /
bz G
bz P
0,
b1 I
b10011101 M
b10011101 3
b10011101 F
b10011101 V
b100111 T
b10 X
b11 R
b10 H
16
#259
06
#260
b1 S
0#
b11 Y
00
b100100 L
b1 N
bz 3
bz F
bz V
b100100 /
b100100 G
b100100 P
1,
b1101 Z
b1 H
b1 R
b11 X
16
#261
06
#262
b11010110 K
b10 N
b11010110 /
b11010110 G
b11010110 P
b101000 T
16
#263
06
#264
b11 S
1#
b10 Y
10
b1110 O
b10 I
b10110 J
b11 N
b10110 /
b10110 G
b10110 P
b101001 T
16
#265
06
#266
b1 S
0#
b11 Y
00
bz /
bz G
bz P
0,
b1 I
b10000011 M
b10000011 3
b10000011 F
b10000011 V
b101010 T
b10 X
b11 R
b10 H
16
#267
06
#268
b1 S
0#
b11 Y
00
b10010001 L
b1 N
bz 3
bz F
bz V
b10010001 /
b10010001 G
b10010001 P
1,
b1110 Z
b1 H
b1 R
b11 X
16
#269
06
#270
b11111001 K
b10 N
b11111001 /
b11111001 G
b11111001 P
b101011 T
16
#271
06
#272
b11 S
1#
b10 Y
10
b1111 O
b10 I
b1000011 J
b11 N
b1000011 /
b1000011 G
b1000011 P
b101100 T
16
#273
06
#274
b1 S
0#
b11 Y
00
bz /
bz G
bz P
0,
b1 I
b10111001 M
b10111001 3
b10111001 F
b10111001 V
b101101 T
b10 X
b11 R
b10 H
16
#275
06
#276
b1 S
0#
b11 Y
00
b10011 L
b1 N
bz 3
bz F
bz V
b10011 /
b10011 G
b10011 P
1,
b1111 Z
b1 H
b1 R
b11 X
16
#277
06
#278
b11100000 K
b10 N
b11100000 /
b11100000 G
b11100000 P
b101110 T
16
#279
06
#280
b11 S
1#
b10 Y
10
b10000 O
b10 I
b10100010 J
b11 N
b10100010 /
b10100010 G
b10100010 P
b101111 T
16
#281
06
#282
b1 S
0#
b11 Y
00
bz /
bz G
bz P
0,
b1 I
b10010001 M
b10010001 3
b10010001 F
b10010001 V
b110000 T
b10 X
b11 R
b10 H
16
#283
06
#284
b1 S
0#
b11 Y
00
b111000 L
b1 N
bz 3
bz F
bz V
b111000 /
b111000 G
b111000 P
1,
b10000 Z
b1 H
b1 R
b11 X
16
#285
06
#286
b101111 K
b10 N
b101111 /
b101111 G
b101111 P
b110001 T
16
#287
06
#288
b11 S
1#
b10 Y
10
b10001 O
b10 I
b11010100 J
b11 N
b11010100 /
b11010100 G
b11010100 P
b110010 T
16
#289
06
#290
b1 S
0#
b11 Y
00
bz /
bz G
bz P
0,
b1 I
b111011 M
b111011 3
b111011 F
b111011 V
b110011 T
b10 X
b11 R
b10 H
16
#291
06
#292
b1 S
0#
b11 Y
00
b10101 L
b1 N
bz 3
bz F
bz V
b10101 /
b10101 G
b10101 P
1,
b10001 Z
b1 H
b1 R
b11 X
16
#293
06
#294
b10001100 K
b10 N
b10001100 /
b10001100 G
b10001100 P
b110100 T
16
#295
06
#296
b11 S
1#
b10 Y
10
b10010 O
b10 I
b11111111 J
b11 N
b11111111 /
b11111111 G
b11111111 P
b110101 T
16
#297
06
#298
b1 S
0#
b11 Y
00
bz /
bz G
bz P
0,
b1 I
b1101001 M
b1101001 3
b1101001 F
b1101001 V
b110110 T
b10 X
b11 R
b10 H
16
#299
06
#300
b1 S
0#
b11 Y
00
b11000001 L
b1 N
bz 3
bz F
bz V
b11000001 /
b11000001 G
b11000001 P
1,
b10010 Z
b1 H
b1 R
b11 X
16
#301
06
#302
b11111 K
b10 N
b11111 /
b11111 G
b11111 P
b110111 T
16
#303
06
#304
b11 S
1#
b10 Y
10
b10011 O
b10 I
b11100101 J
b11 N
b11100101 /
b11100101 G
b11100101 P
b111000 T
16
#305
06
#306
b1 S
0#
b11 Y
00
bz /
bz G
bz P
0,
b1 I
b1011011 M
b1011011 3
b1011011 F
b1011011 V
b111001 T
b10 X
b11 R
b10 H
16
#307
06
#308
b1 S
0#
b11 Y
00
b10101001 L
b1 N
bz 3
bz F
bz V
b10101001 /
b10101001 G
b10101001 P
1,
b10011 Z
b1 H
b1 R
b11 X
16
#309
06
#310
b111011 K
b10 N
b111011 /
b111011 G
b111011 P
b111010 T
16
#311
06
#312
b11 S
1#
b10 Y
10
b10100 O
b10 I
b101011 J
b11 N
b101011 /
b101011 G
b101011 P
b111011 T
16
#313
06
#314
b1 S
0#
b11 Y
00
bz /
bz G
bz P
0,
b1 I
b1010010 M
b1010010 3
b1010010 F
b1010010 V
b111100 T
b10 X
b11 R
b10 H
16
#315
06
#316
b1 S
0#
b11 Y
00
b11011101 L
b1 N
bz 3
bz F
bz V
b11011101 /
b11011101 G
b11011101 P
1,
b10100 Z
b1 H
b1 R
b11 X
16
#317
06
#318
b10001 K
b10 N
b10001 /
b10001 G
b10001 P
b111101 T
16
#319
06
#320
b11 S
1#
b10 Y
10
b10101 O
b10 I
b10001110 J
b11 N
b10001110 /
b10001110 G
b10001110 P
b111110 T
16
#321
06
#322
b1 S
0#
b11 Y
00
bz /
bz G
bz P
0,
b1 I
b1010010 3
b1010010 F
b1010010 V
b111111 T
b10 X
b11 R
b10 H
16
#323
06
#324
b1 S
0#
b11 Y
00
b11111111 L
b1 N
bz 3
bz F
bz V
b11111111 /
b11111111 G
b11111111 P
1,
b10101 Z
b1 H
b1 R
b11 X
16
#325
06
#326
b11001010 K
b10 N
b11001010 /
b11001010 G
b11001010 P
b1000000 T
16
#327
06
#328
b11 S
1#
b10 Y
10
b10110 O
b10 I
b11111 J
b11 N
b11111 /
b11111 G
b11111 P
b1000001 T
16
#329
06
#330
b1 S
0#
b11 Y
00
bz /
bz G
bz P
0,
b1 I
b10111000 M
b10111000 3
b10111000 F
b10111000 V
b1000010 T
b10 X
b11 R
b10 H
16
#331
06
#332
b1 S
0#
b11 Y
00
b11101110 L
b1 N
bz 3
bz F
bz V
b11101110 /
b11101110 G
b11101110 P
1,
b10110 Z
b1 H
b1 R
b11 X
16
#333
06
#334
b10101001 K
b10 N
b10101001 /
b10101001 G
b10101001 P
b1000011 T
16
#335
06
#336
b11 S
1#
b10 Y
10
b10111 O
b10 I
b110111 J
b11 N
b110111 /
b110111 G
b110111 P
b1000100 T
16
#337
06
#338
b1 S
0#
b11 Y
00
bz /
bz G
bz P
0,
b1 I
b10100100 M
b10100100 3
b10100100 F
b10100100 V
b1000101 T
b10 X
b11 R
b10 H
16
#339
06
#340
b1 S
0#
b11 Y
00
b101011 L
b1 N
bz 3
bz F
bz V
b101011 /
b101011 G
b101011 P
1,
b10111 Z
b1 H
b1 R
b11 X
16
#341
06
#342
b11100100 K
b10 N
b11100100 /
b11100100 G
b11100100 P
b1000110 T
16
#343
06
#344
b11 S
1#
b10 Y
10
b11000 O
b10 I
b10001 J
b11 N
b10001 /
b10001 G
b10001 P
b1000111 T
16
#345
06
#346
b1 S
0#
b11 Y
00
bz /
bz G
bz P
0,
b1 I
b10001100 M
b10001100 3
b10001100 F
b10001100 V
b1001000 T
b10 X
b11 R
b10 H
16
#347
06
#348
b1 S
0#
b11 Y
00
b11100001 L
b1 N
bz 3
bz F
bz V
b11100001 /
b11100001 G
b11100001 P
1,
b11000 Z
b1 H
b1 R
b11 X
16
#349
06
#350
b11111111 K
b10 N
b11111111 /
b11111111 G
b11111111 P
b1001001 T
16
#351
06
#352
b10 Y
10
b11 ]
b11001 O
b10 I
b11011110 J
b11 N
1.
b0 S
b11011110 /
b11011110 G
b11011110 P
b1001010 T
16
#353
06
#354
00
0-
z"
1*
b0 Y
b0 S
0.
bz /
bz G
bz P
0,
12
b0 I
b11100000 M
b11100000 3
b11100000 F
b11100000 V
0!
01
b0 T
b10 X
b0 R
b10 H
b11 \
16
#355
06
#356
b1 Y
0*
02
b0 J
b0 K
b0 L
b0 N
b0 O
bz 3
bz F
bz V
b0 Z
b0 H
b0 X
16
#357
06
#358
b1 ;
b1010101 +
b1010101 :
b1010101 W
1(
b1 X
16
#359
06
#360
b10111010 +
b10111010 :
b10111010 W
b1 Z
b1 C
b1 <
16
#361
06
#362
b10100001 +
b10100001 :
b10100001 W
b10 C
b10 Z
16
#363
06
#364
b10000011 +
b10000011 :
b10000011 W
b11 Z
b11 C
16
#365
06
#366
b10100 +
b10100 :
b10100 W
b100 C
b100 Z
16
#367
06
#368
b1110000 +
b1110000 :
b1110000 W
b101 Z
b101 C
16
#369
06
#370
b110001 +
b110001 :
b110001 W
b110 C
b110 Z
16
#371
06
#372
b100101 +
b100101 :
b100101 W
b111 Z
b111 C
16
#373
06
#374
b1011001 +
b1011001 :
b1011001 W
b1000 C
b1000 Z
16
#375
06
#376
b1001001 +
b1001001 :
b1001001 W
b1001 Z
b1001 C
16
#377
06
#378
b10110101 +
b10110101 :
b10110101 W
b1010 C
b1010 Z
16
#379
06
#380
b10110010 +
b10110010 :
b10110010 W
b1011 Z
b1011 C
16
#381
06
#382
b10011101 +
b10011101 :
b10011101 W
b1100 C
b1100 Z
16
#383
06
#384
b10000011 +
b10000011 :
b10000011 W
b1101 Z
b1101 C
16
#385
06
#386
b10111001 +
b10111001 :
b10111001 W
b1110 C
b1110 Z
16
#387
06
#388
b10010001 +
b10010001 :
b10010001 W
b1111 Z
b1111 C
16
#389
06
#390
b111011 +
b111011 :
b111011 W
b10000 C
b10000 Z
16
#391
06
#392
b1101001 +
b1101001 :
b1101001 W
b10001 Z
b10001 C
16
#393
06
#394
b1011011 +
b1011011 :
b1011011 W
b10010 C
b10010 Z
16
#395
06
#396
b1010010 +
b1010010 :
b1010010 W
b10011 Z
b10011 C
16
#397
06
#398
b10100 C
b10100 Z
16
#399
06
#400
b10111000 +
b10111000 :
b10111000 W
b10101 Z
b10101 C
16
#401
06
#402
b10100100 +
b10100100 :
b10100100 W
b10110 C
b10110 Z
16
#403
06
#404
b10001100 +
b10001100 :
b10001100 W
b10111 Z
b10111 C
16
#405
06
#406
b0 ]
b10 ;
1*
b0 Y
b11100000 +
b11100000 :
b11100000 W
b11000 C
b11000 Z
16
#407
06
#408
0$
0)
z!
b0 Y
0*
b11 ;
bz +
bz :
bz W
0(
b0 Z
b0 C
b10 <
b0 \
b0 X
16
#409
06
#410
b0 ;
b1 B
b11001 =
b11001 @
b10001 ?
b101010 >
b11001 4
b11001 9
b11 <
16
#411
06
#412
1$
b0 B
b0 @
b0 ?
b0 >
b0 =
bz 4
bz 9
b0 <
16
