vcd/video_stitcher_tb.vcd
$date
	Fri Apr 23 16:25:18 2021
$end
$version
	Icarus Verilog
$end
$timescale
	1ns
$end
$scope module video_stitcher_tb $end
$var wire 1 ! rw_2 $end
$var wire 1 " rw_1 $end
$var wire 1 # pause $end
$var wire 1 $ data_valid $end
$var wire 1 % camera_enable $end
$var wire 8 & camera_data [7:0] $end
$var wire 1 ' RWM_2_valid $end
$var wire 1 ( RWM_2_enable $end
$var wire 1 ) RWM_2_done $end
$var wire 8 * RWM_2_data [7:0] $end
$var wire 1 + RWM_1_valid $end
$var wire 1 , RWM_1_enable $end
$var wire 1 - RWM_1_done $end
$var wire 8 . RWM_1_data [7:0] $end
$var wire 1 / GS_valid $end
$var wire 1 0 GS_enable $end
$var wire 1 1 GS_done $end
$var wire 8 2 GS_data [7:0] $end
$var reg 1 3 clear $end
$var reg 1 4 clk $end
$var reg 1 5 rst_n $end
$var reg 1 6 start $end
$scope module GS $end
$var wire 1 4 clk $end
$var wire 1 5 rst_n $end
$var wire 1 # pause $end
$var wire 1 + RWM_valid $end
$var wire 1 / GS_valid $end
$var wire 1 0 GS_enable $end
$var wire 8 7 Dout [7:0] $end
$var wire 8 8 Din [7:0] $end
$var reg 2 9 CS [1:0] $end
$var reg 1 1 GS_done $end
$var reg 2 : NS [1:0] $end
$var reg 8 ; blue [7:0] $end
$var reg 8 < green [7:0] $end
$var reg 8 = red [7:0] $end
$var reg 8 > result [7:0] $end
$var integer 32 ? c [31:0] $end
$var integer 32 @ d [31:0] $end
$upscope $end
$scope module Memory_1 $end
$var wire 1 3 clear $end
$var wire 1 4 clk $end
$var wire 1 # pause $end
$var wire 1 5 rst_n $end
$var wire 1 " rw $end
$var wire 8 A data_out [7:0] $end
$var wire 8 B data_in [7:0] $end
$var wire 1 + RWM_valid $end
$var wire 1 , RWM_enable $end
$var reg 3 C CS [2:0] $end
$var reg 3 D NS [2:0] $end
$var reg 1 - RWM_done $end
$var reg 8 E cache_out [7:0] $end
$var integer 32 F i [31:0] $end
$upscope $end
$scope module Memory_2 $end
$var wire 1 / GS_valid $end
$var wire 1 3 clear $end
$var wire 1 4 clk $end
$var wire 8 G data_in [7:0] $end
$var wire 1 5 rst_n $end
$var wire 1 ! rw $end
$var wire 8 H data_out [7:0] $end
$var wire 1 ' RWM_valid $end
$var wire 1 ( RWM_enable $end
$var reg 3 I CS [2:0] $end
$var reg 3 J NS [2:0] $end
$var reg 1 ) RWM_done $end
$var reg 8 K cache_out [7:0] $end
$var integer 32 L i [31:0] $end
$upscope $end
$scope module control $end
$var wire 1 1 GS_done $end
$var wire 1 - RWM_1_done $end
$var wire 1 ) RWM_2_done $end
$var wire 1 4 clk $end
$var wire 1 5 rst_n $end
$var wire 1 6 start $end
$var wire 1 ! rw_2 $end
$var wire 1 " rw_1 $end
$var wire 1 % camera_enable $end
$var wire 1 ( RWM_2_enable $end
$var wire 1 , RWM_1_enable $end
$var wire 1 0 GS_enable $end
$var reg 3 M CS [2:0] $end
$var reg 3 N NS [2:0] $end
$upscope $end
$scope module interface $end
$var wire 1 % camera_en $end
$var wire 1 4 clk $end
$var reg 8 O data_out [7:0] $end
$var reg 1 $ data_valid $end
$var integer 32 P ptr [31:0] $end
$upscope $end
$upscope $end
$enddefinitions $end
#0
$dumpvars
b0 P
bx O
b0 N
b0 M
bx L
bx K
b0 J
b0 I
bz H
bz G
bx F
bx E
b0 D
b0 C
bx B
bz A
b0 @
b1 ?
bx >
b0 =
b0 <
b0 ;
b0 :
b0 9
bz 8
bz 7
06
05
04
03
bz 2
01
00
0/
bz .
0-
0,
0+
bz *
0)
0(
0'
bx &
0%
x$
0#
z"
z!
$end
#1
bz &
bz B
bz O
0$
b0 F
b0 L
14
#2
04
#3
14
#4
04
#5
14
#6
04
#7
14
#8
04
#9
14
#10
04
#11
14
#12
04
#13
14
#14
04
#15
14
#16
04
#17
14
#18
04
#19
14
#20
04
#21
14
#22
04
#23
14
#24
04
#25
14
#26
04
#27
14
#28
04
#29
14
#30
04
#31
14
#32
04
#33
14
#34
04
#35
14
#36
04
#37
14
#38
04
#39
14
#40
04
#41
14
#42
04
#43
14
#44
04
#45
14
#46
04
#47
14
#48
04
#49
14
#50
04
#51
14
#52
04
#53
14
#54
04
#55
14
#56
04
#57
14
#58
04
#59
14
#60
04
#61
14
#62
04
#63
14
#64
04
#65
14
#66
04
#67
14
#68
04
#69
14
#70
04
#71
14
#72
04
#73
14
#74
04
#75
14
#76
04
#77
14
#78
04
#79
14
#80
04
#81
14
#82
04
#83
14
#84
04
#85
14
#86
04
#87
14
#88
04
#89
14
#90
04
#91
14
#92
04
#93
14
#94
04
#95
14
#96
04
#97
14
#98
04
#99
14
#100
04
#101
14
#102
04
#103
14
#104
04
#105
14
#106
04
#107
14
#108
04
#109
14
#110
04
#111
14
#112
04
#113
14
#114
04
#115
14
#116
04
#117
14
#118
04
#119
14
#120
04
#121
14
#122
04
#123
14
#124
04
#125
14
#126
04
#127
14
#128
04
#129
14
#130
04
#131
14
#132
04
#133
14
#134
04
#135
14
#136
04
#137
14
#138
04
#139
14
#140
04
#141
14
#142
04
#143
14
#144
04
#145
14
#146
04
#147
14
#148
04
#149
14
#150
b1 N
04
16
15
#151
b10 D
1,
1%
1"
b1 M
14
#152
04
06
#153
b10 C
b1 P
b10111100 &
b10111100 B
b10111100 O
1$
14
#154
04
#155
b1 F
b10 P
b100111 &
b100111 B
b100111 O
14
#156
04
#157
b11 P
b10000001 &
b10000001 B
b10000001 O
b10 F
14
#158
04
#159
b11 F
b100 P
b11111111 &
b11111111 B
b11111111 O
14
#160
04
#161
b101 P
b11001110 &
b11001110 B
b11001110 O
b100 F
14
#162
04
#163
b101 F
b110 P
b11111 &
b11111 B
b11111 O
14
#164
04
#165
b111 P
b11100000 &
b11100000 B
b11100000 O
b110 F
14
#166
04
#167
b111 F
b1000 P
b10101001 &
b10101001 B
b10101001 O
14
#168
04
#169
b1001 P
b111000 &
b111000 B
b111000 O
b1000 F
14
#170
04
#171
b1001 F
b1010 P
b101011 &
b101011 B
b101011 O
14
#172
04
#173
b1011 P
b11010100 &
b11010100 B
b11010100 O
b1010 F
14
#174
04
#175
b10 N
1-
b0 D
b1011 F
b0 P
b10001 &
b10001 B
b10001 O
14
#176
04
#177
b11 J
1(
0%
0"
1!
10
b1 D
0-
b0 C
b10 M
b1 P
b10111100 &
b10111100 B
b10111100 O
b0 F
14
#178
04
#179
b1 :
b10111100 .
b10111100 8
b10111100 A
1+
b1 C
b11 I
bz &
bz B
bz O
b0 P
0$
14
#180
04
#181
b100111 <
b10 ?
b100111 .
b100111 8
b100111 A
b1 9
b1 F
b10111100 E
14
#182
04
#183
b11 D
1#
b10 J
1/
b1 @
b10 :
b10000001 ;
b11 ?
b10000001 .
b10000001 8
b10000001 A
b10 F
b100111 E
14
#184
04
#185
b1 D
0#
b11 J
0/
0+
b1 :
b100001 >
b100001 2
b100001 7
b100001 G
bz .
bz 8
bz A
b10 I
b11 C
b10 9
b11 F
b10000001 E
14
#186
04
#187
b1 D
0#
b11 J
0/
b11111111 =
b1 ?
bz 2
bz 7
bz G
b11111111 .
b11111111 8
b11111111 A
1+
b1 9
b1 C
b11 I
b1 L
14
#188
04
#189
b11001110 <
b10 ?
b11001110 .
b11001110 8
b11001110 A
b100 F
b11111111 E
14
#190
04
#191
b11 D
1#
b10 J
1/
b10 @
b10 :
b11111 ;
b11 ?
b11111 .
b11111 8
b11111 A
b101 F
b11001110 E
14
#192
04
#193
b1 D
0#
b11 J
0/
0+
b1 :
b10111010 >
b10111010 2
b10111010 7
b10111010 G
bz .
bz 8
bz A
b10 I
b11 C
b10 9
b110 F
b11111 E
14
#194
04
#195
b1 D
0#
b11 J
0/
b11100000 =
b1 ?
bz 2
bz 7
bz G
b11100000 .
b11100000 8
b11100000 A
1+
b1 9
b1 C
b11 I
b10 L
14
#196
04
#197
b10101001 <
b10 ?
b10101001 .
b10101001 8
b10101001 A
b111 F
b11100000 E
14
#198
04
#199
b11 D
1#
b10 J
1/
b11 @
b10 :
b111000 ;
b11 ?
b111000 .
b111000 8
b111000 A
b1000 F
b10101001 E
14
#200
04
#201
b1 D
0#
b11 J
0/
0+
b1 :
b10100001 >
b10100001 2
b10100001 7
b10100001 G
bz .
bz 8
bz A
b10 I
b11 C
b10 9
b1001 F
b111000 E
14
#202
04
#203
b1 D
0#
b11 J
0/
b101011 =
b1 ?
bz 2
bz 7
bz G
b101011 .
b101011 8
b101011 A
1+
b1 9
b1 C
b11 I
b11 L
14
#204
04
#205
b11010100 <
b10 ?
b11010100 .
b11010100 8
b11010100 A
b1010 F
b101011 E
14
#206
04
#207
b10 J
1/
b11 N
b100 @
b10 :
b10001 ;
b11 ?
1-
b0 D
b10001 .
b10001 8
b10001 A
b1011 F
b11010100 E
14
#208
04
#209
0/
0,
z"
1)
b0 J
0+
11
b0 :
b10000011 >
b10000011 2
b10000011 7
b10000011 G
0!
00
b0 D
0-
bz .
bz 8
bz A
b10 I
b0 C
b10 9
b11 M
b0 F
b10001 E
14
#210
04
#211
01
b0 ;
b0 <
b0 =
b1 ?
b0 @
bz 2
bz 7
bz G
b1 J
0)
b0 9
b0 I
b0 L
14
#212
04
#213
b100001 *
b100001 H
1'
b1 I
14
#214
04
#215
b10111010 *
b10111010 H
b1 L
b100001 K
14
#216
04
#217
b10100001 *
b10100001 H
b10 L
b10111010 K
14
#218
04
#219
b0 N
1)
b0 J
b10000011 *
b10000011 H
b11 L
b10100001 K
14
#220
04
#221
0(
z!
0'
b0 J
0)
bz *
bz H
b0 I
b0 M
b0 L
b10000011 K
14
