vcd/video_stitcher_tb.vcd
$date
	Mon Apr 19 22:34:40 2021
$end
$version
	Icarus Verilog
$end
$timescale
	1ns
$end
$scope module video_stitcher_tb $end
$var wire 1 ! rw $end
$var wire 1 " pause $end
$var wire 1 # data_valid $end
$var wire 1 $ camera_enable $end
$var wire 8 % camera_data [7:0] $end
$var wire 1 & RWM_valid $end
$var wire 1 ' RWM_enable $end
$var wire 8 ( RWM_data [7:0] $end
$var wire 1 ) RWM_1_done $end
$var wire 1 * GS_enable $end
$var wire 1 + GS_done $end
$var wire 8 , GS_data [7:0] $end
$var reg 1 - clear $end
$var reg 1 . clk $end
$var reg 1 / rst_n $end
$var reg 1 0 start $end
$scope module GS $end
$var wire 1 . clk $end
$var wire 1 / rst_n $end
$var wire 1 " pause $end
$var wire 1 & RWM_valid $end
$var wire 1 * GS_enable $end
$var wire 8 1 Dout [7:0] $end
$var wire 8 2 Din [7:0] $end
$var reg 2 3 CS [1:0] $end
$var reg 1 + GS_done $end
$var reg 2 4 NS [1:0] $end
$var reg 8 5 blue [7:0] $end
$var reg 8 6 green [7:0] $end
$var reg 8 7 red [7:0] $end
$var reg 8 8 result [7:0] $end
$var integer 32 9 c [31:0] $end
$var integer 32 : d [31:0] $end
$upscope $end
$scope module MUT $end
$var wire 1 - clear $end
$var wire 1 . clk $end
$var wire 1 " pause $end
$var wire 1 / rst_n $end
$var wire 1 ! rw $end
$var wire 8 ; data_out [7:0] $end
$var wire 8 < data_in [7:0] $end
$var wire 1 & RWM_valid $end
$var wire 1 ' RWM_enable $end
$var reg 3 = CS [2:0] $end
$var reg 3 > NS [2:0] $end
$var reg 1 ) RWM_done $end
$var reg 8 ? cache_out [7:0] $end
$var integer 32 @ i [31:0] $end
$upscope $end
$scope module control $end
$var wire 1 + GS_done $end
$var wire 1 ) RWM_1_done $end
$var wire 1 . clk $end
$var wire 1 / rst_n $end
$var wire 1 0 start $end
$var wire 1 $ camera_enable $end
$var wire 1 * GS_enable $end
$var reg 2 A CS [1:0] $end
$var reg 2 B NS [1:0] $end
$var reg 1 ' RWM_enable $end
$var reg 1 ! rw $end
$upscope $end
$scope module interface $end
$var wire 1 $ camera_en $end
$var wire 1 . clk $end
$var reg 8 C data_out [7:0] $end
$var reg 1 # data_valid $end
$var integer 32 D ptr [31:0] $end
$upscope $end
$upscope $end
$enddefinitions $end
#0
$dumpvars
b0 D
bx C
b0 B
b0 A
bx @
bx ?
b0 >
b0 =
bx <
bz ;
b0 :
b0 9
bx 8
b0 7
b0 6
b0 5
b0 4
b0 3
bz 2
bz 1
00
0/
0.
0-
bz ,
0+
0*
0)
bz (
0'
0&
bx %
0$
x#
0"
z!
$end
#1
bz %
bz <
bz C
0#
b0 @
1.
#2
0.
#3
1.
#4
0.
#5
1.
#6
0.
#7
1.
#8
0.
#9
1.
#10
0.
#11
1.
#12
0.
#13
1.
#14
0.
#15
1.
#16
0.
#17
1.
#18
0.
#19
1.
#20
0.
#21
1.
#22
0.
#23
1.
#24
0.
#25
1.
#26
0.
#27
1.
#28
0.
#29
1.
#30
0.
#31
1.
#32
0.
#33
1.
#34
0.
#35
1.
#36
0.
#37
1.
#38
0.
#39
1.
#40
0.
#41
1.
#42
0.
#43
1.
#44
0.
#45
1.
#46
0.
#47
1.
#48
0.
#49
1.
#50
0.
#51
1.
#52
0.
#53
1.
#54
0.
#55
1.
#56
0.
#57
1.
#58
0.
#59
1.
#60
0.
#61
1.
#62
0.
#63
1.
#64
0.
#65
1.
#66
0.
#67
1.
#68
0.
#69
1.
#70
0.
#71
1.
#72
0.
#73
1.
#74
0.
#75
1.
#76
0.
#77
1.
#78
0.
#79
1.
#80
0.
#81
1.
#82
0.
#83
1.
#84
0.
#85
1.
#86
0.
#87
1.
#88
0.
#89
1.
#90
0.
#91
1.
#92
0.
#93
1.
#94
0.
#95
1.
#96
0.
#97
1.
#98
0.
#99
1.
#100
0.
#101
1.
#102
0.
#103
1.
#104
0.
#105
1.
#106
0.
#107
1.
#108
0.
#109
1.
#110
0.
#111
1.
#112
0.
#113
1.
#114
0.
#115
1.
#116
0.
#117
1.
#118
0.
#119
1.
#120
0.
#121
1.
#122
0.
#123
1.
#124
0.
#125
1.
#126
0.
#127
1.
#128
0.
#129
1.
#130
0.
#131
1.
#132
0.
#133
1.
#134
0.
#135
1.
#136
0.
#137
1.
#138
0.
#139
1.
#140
0.
#141
1.
#142
0.
#143
1.
#144
0.
#145
1.
#146
0.
#147
1.
#148
0.
#149
1.
#150
b1 B
0.
10
1/
#151
1$
b1 A
1.
#152
b10 >
1!
1'
0.
00
#153
b10 =
b1 D
b10111100 %
b10111100 <
b10111100 C
1#
1.
#154
0.
#155
b1 @
b10 D
b100111 %
b100111 <
b100111 C
1.
#156
0.
#157
b11 D
b10000001 %
b10000001 <
b10000001 C
b10 @
1.
#158
0.
#159
b11 @
b100 D
b11111111 %
b11111111 <
b11111111 C
1.
#160
0.
#161
b101 D
b11001110 %
b11001110 <
b11001110 C
b100 @
1.
#162
0.
#163
b101 @
b110 D
b11111 %
b11111 <
b11111 C
1.
#164
0.
#165
b111 D
b11100000 %
b11100000 <
b11100000 C
b110 @
1.
#166
0.
#167
b111 @
b1000 D
b10101001 %
b10101001 <
b10101001 C
1.
#168
0.
#169
b1001 D
b111000 %
b111000 <
b111000 C
b1000 @
1.
#170
0.
#171
b1001 @
b1010 D
b101011 %
b101011 <
b101011 C
1.
#172
0.
#173
b1011 D
b11010100 %
b11010100 <
b11010100 C
b1010 @
1.
#174
0.
#175
b1011 @
b0 D
b10001 %
b10001 <
b10001 C
1.
#176
0.
#177
b10 B
1)
b0 >
b1 D
b10111100 %
b10111100 <
b10111100 C
b1100 @
1.
#178
0.
#179
0!
0$
1*
b1 >
0)
b10 A
b0 =
b0 @
b10 D
b100111 %
b100111 <
b100111 C
1.
#180
0.
#181
b1 4
bx (
bx 2
bx ;
1&
b1 =
bz %
bz <
bz C
b0 D
0#
1.
#182
0.
#183
b1 9
b10111100 7
b10111100 (
b10111100 2
b10111100 ;
b1 3
b1 @
b10111100 ?
1.
#184
0.
#185
b10 9
b100111 6
b100111 (
b100111 2
b100111 ;
b10 @
b100111 ?
1.
#186
0.
#187
b11 >
1"
b11 9
b1 :
b10 4
b10000001 5
b10000001 (
b10000001 2
b10000001 ;
b11 @
b10000001 ?
1.
#188
0.
#189
b1 >
0"
0&
b1 4
b1010101 8
b0 9
b1010101 ,
b1010101 1
bz (
bz 2
bz ;
b11 =
b10 3
b100 @
b11111111 ?
1.
#190
0.
#191
b1 9
b11111111 7
bz ,
bz 1
b11111111 (
b11111111 2
b11111111 ;
1&
b1 3
b1 =
1.
#192
0.
#193
b10 9
b11001110 6
b11001110 (
b11001110 2
b11001110 ;
b101 @
b11001110 ?
1.
#194
0.
#195
b11 >
1"
b11 9
b10 :
b10 4
b11111 5
b11111 (
b11111 2
b11111 ;
b110 @
b11111 ?
1.
#196
0.
#197
b1 >
0"
0&
b1 4
b10111010 8
b0 9
b10111010 ,
b10111010 1
bz (
bz 2
bz ;
b11 =
b10 3
b111 @
b11100000 ?
1.
#198
0.
#199
b1 9
b11100000 7
bz ,
bz 1
b11100000 (
b11100000 2
b11100000 ;
1&
b1 3
b1 =
1.
#200
0.
#201
b10 9
b10101001 6
b10101001 (
b10101001 2
b10101001 ;
b1000 @
b10101001 ?
1.
#202
0.
#203
b11 >
1"
b11 9
b11 :
b10 4
b111000 5
b111000 (
b111000 2
b111000 ;
b1001 @
b111000 ?
1.
#204
0.
#205
b1 >
0"
0&
b1 4
b10100001 8
b0 9
b10100001 ,
b10100001 1
bz (
bz 2
bz ;
b11 =
b10 3
b1010 @
b101011 ?
1.
#206
0.
#207
b1 9
b101011 7
bz ,
bz 1
b101011 (
b101011 2
b101011 ;
1&
b1 3
b1 =
1.
#208
0.
#209
b10 9
b11010100 6
b11010100 (
b11010100 2
b11010100 ;
b1011 @
b11010100 ?
1.
#210
0.
#211
b0 B
b11 9
b100 :
b10 4
b10001 5
1)
b0 >
b10001 (
b10001 2
b10001 ;
b1100 @
b10001 ?
1.
#212
0.
#213
z!
0'
0&
1+
b0 4
b10000011 8
b0 9
b10000011 ,
b10000011 1
0*
b0 >
0)
bz (
bz 2
bz ;
b0 =
b10 3
b0 A
b0 @
bx ?
1.
#214
0.
#215
0+
b0 5
b0 6
b0 7
b0 :
bz ,
bz 1
b0 3
1.
